<?xml version="1.0" encoding="utf-8"?>
<!-- Generator: Adobe Illustrator 19.0.0, SVG Export Plug-In . SVG Version: 6.00 Build 0)  -->
<svg version="1.1" id="Layer_1" xmlns="http://www.w3.org/2000/svg" xmlns:xlink="http://www.w3.org/1999/xlink" x="0px" y="0px"
	 width="69.3px" height="80.5px" viewBox="8.8 357.8 69.3 80.5" style="enable-background:new 8.8 357.8 69.3 80.5;"
	 xml:space="preserve">
<style type="text/css">
	.st0{fill:#004480;}
	.st1{fill:#006838;}
	.st2{fill:#005180;}
	.st3{fill:#007DC4;}
	.st4{fill:#8BC53F;}
	.st5{fill:none;}
	.st6{fill:#00A0E3;}
	.st7{fill:#01A0E3;}
	.st8{fill:#02A1E3;}
	.st9{fill:#03A1E3;}
	.st10{fill:#04A2E3;}
	.st11{fill:#05A2E3;}
	.st12{fill:#06A2E3;}
	.st13{fill:#07A3E4;}
	.st14{fill:#08A3E4;}
	.st15{fill:#09A4E4;}
	.st16{fill:#0AA4E4;}
	.st17{fill:#0BA5E4;}
	.st18{fill:#0CA5E4;}
	.st19{fill:#0DA5E4;}
	.st20{fill:#0EA6E4;}
	.st21{fill:#0FA6E4;}
	.st22{fill:#10A7E4;}
	.st23{fill:#11A7E4;}
	.st24{fill:#12A7E4;}
	.st25{fill:#13A8E4;}
	.st26{fill:#14A8E5;}
	.st27{fill:#15A9E5;}
	.st28{fill:#16A9E5;}
	.st29{fill:#17AAE5;}
	.st30{fill:#18AAE5;}
	.st31{fill:#19AAE5;}
	.st32{fill:#1AABE5;}
	.st33{fill:#1BABE5;}
	.st34{fill:#1CACE5;}
	.st35{fill:#1DACE5;}
	.st36{fill:#1EACE5;}
	.st37{fill:#1FADE5;}
	.st38{fill:#20ADE5;}
	.st39{fill:#21AEE5;}
	.st40{fill:#22AEE6;}
	.st41{fill:#23AFE6;}
	.st42{fill:#24AFE6;}
	.st43{fill:#25AFE6;}
	.st44{fill:#26B0E6;}
	.st45{fill:#27B0E6;}
	.st46{fill:#28B1E6;}
	.st47{fill:#29B1E6;}
	.st48{fill:#2AB1E6;}
	.st49{fill:#2BB2E6;}
	.st50{fill:#2CB2E6;}
	.st51{fill:#2DB3E6;}
	.st52{fill:#2EB3E6;}
	.st53{fill:#2FB4E7;}
	.st54{fill:#30B4E7;}
	.st55{fill:#31B4E7;}
	.st56{fill:#32B5E7;}
	.st57{fill:#33B5E7;}
	.st58{fill:#34B6E7;}
	.st59{fill:#36B6E7;}
	.st60{fill:#37B6E7;}
	.st61{fill:#38B7E7;}
	.st62{fill:#39B7E7;}
	.st63{fill:#3AB8E7;}
	.st64{fill:#3BB8E7;}
	.st65{fill:#3CB8E7;}
	.st66{fill:#3DB9E8;}
	.st67{fill:#3EB9E8;}
	.st68{fill:#3FBAE8;}
	.st69{fill:#40BAE8;}
	.st70{fill:#41BBE8;}
	.st71{fill:#42BBE8;}
	.st72{fill:#43BBE8;}
	.st73{fill:#44BCE8;}
	.st74{fill:#45BCE8;}
	.st75{fill:#46BDE8;}
	.st76{fill:#47BDE8;}
	.st77{fill:#48BDE8;}
	.st78{fill:#49BEE8;}
	.st79{fill:#4ABEE9;}
	.st80{fill:#4BBFE9;}
	.st81{fill:#4CBFE9;}
	.st82{fill:#4DC0E9;}
	.st83{fill:#4EC0E9;}
	.st84{fill:#4FC0E9;}
	.st85{fill:#50C1E9;}
	.st86{fill:#51C1E9;}
	.st87{fill:#52C2E9;}
	.st88{fill:#53C2E9;}
	.st89{fill:#54C2E9;}
	.st90{fill:#55C3E9;}
	.st91{fill:#56C3E9;}
	.st92{fill:#57C4E9;}
	.st93{fill:#58C4EA;}
	.st94{fill:#59C5EA;}
	.st95{fill:#5AC5EA;}
	.st96{fill:#5BC5EA;}
	.st97{fill:#5CC6EA;}
	.st98{fill:#5DC6EA;}
	.st99{fill:#5EC7EA;}
	.st100{fill:#5FC7EA;}
	.st101{fill:#60C7EA;}
	.st102{fill:#61C8EA;}
	.st103{fill:#62C8EA;}
	.st104{fill:#63C9EA;}
	.st105{fill:#64C9EA;}
	.st106{fill:#65CAEB;}
	.st107{fill:#66CAEB;}
	.st108{fill:#67CAEB;}
	.st109{fill:#68CBEB;}
	.st110{fill:#69CBEB;}
	.st111{fill:#6ACCEB;}
	.st112{fill:#6BCCEB;}
	.st113{fill:#FFFFFF;}
</style>
<g id="XMLID_46_">
	<g id="XMLID_13_">
		<g id="XMLID_12_">
			<path class="st0" d="M39.2,358.7c0,0,3.8,3-2.9,8S29,377.6,32,380.6c0,0-3.9-2.3-3.6-5.3C28.6,372.4,32.6,363.3,39.2,358.7z"/>
		</g>
		<g id="XMLID_11_">
			<path class="st1" d="M62.7,372.1c0,0,0.5,3.4-4.6,4.6c-5.8,1.4-11.7,7.3-7.3,13.3c0,0-4.8-3.8,0.4-11.8
				C55.4,371.6,62.7,372.1,62.7,372.1z"/>
		</g>
		<g id="XMLID_10_">
			<path class="st2" d="M56.7,401.6c-3.5,7.1-2.1,11.4-6.8,17.4c-5.5,6.9-16.7,4.4-16.7,4.4s6.2-3.6,5.9-10.6
				c-0.4-8-7-11.1-13.7-29.9c-0.8-2.1-1.2-4.2-1.4-6c-8.3,6-13.7,15.8-13.7,26.8c0,18.3,14.8,33.1,33.1,33.1s33.1-14.8,33.1-33.1
				c0-4.3-1.3-12.3-5.1-16C65.5,388.7,60,394.9,56.7,401.6z"/>
		</g>
		<g id="XMLID_9_">
			<path class="st3" d="M39.2,358.7c0,0-14.1,12.4-8.3,20.7c3.9,5.6,9.9,0.2,12.6-3.5c4-5.5,9.2-7.2,12.5-7.3c0,0-11,4.6-14.1,17.1
				s3.4,18.9,2.5,26.3c-0.8,7.4-7.8,9.7-7.8,9.7s4.9-4.2,3.9-11.2c-0.9-6.3-7.8-14-12.6-25.9C24,374.5,30.9,364,39.2,358.7z"/>
		</g>
		<g id="XMLID_8_">
			<path class="st4" d="M62.7,372.1c-0.3,0-5-0.1-9.9,4.5c-3.8,3.7-5.3,9.7-2.2,13.1c2.3,2.6,6.4,2,10.3-2.1
				c6.3-6.5,12-5.7,13.7-3.3c0,0-7.8-2.4-17.8,13.2c-7.3,11.3-3.3,16.1-10.5,22c-3.7,3.1-9.4,2.7-9.4,2.7s4.9-0.9,7.8-5.8
				c4.9-8.5-2.9-16.6-0.5-29.2C45.8,379.5,52,371.4,62.7,372.1z"/>
		</g>
		<g id="XMLID_7_">
			<ellipse class="st3" cx="36.9" cy="374.5" rx="4.5" ry="4.5"/>
		</g>
		<g id="XMLID_6_">
			
				<ellipse transform="matrix(0.6802 -0.733 0.733 0.6802 -263.8297 163.6827)" class="st4" cx="55.7" cy="384.2" rx="4.6" ry="4.5"/>
		</g>
		<g id="XMLID_5_">
			<g id="XMLID_549_">
				<g>
					<path class="st5" d="M40.8,408.5"/>
					<path id="XMLID_551_" class="st6" d="M40.8,408.5L40.8,408.5L40.8,408.5z"/>
				</g>
				<g>
					<path class="st5" d="M40.8,408.5"/>
					<path id="XMLID_552_" class="st6" d="M40.8,408.5L40.8,408.5L40.8,408.5z"/>
				</g>
				<g>
					<path class="st5" d="M40.8,408.5"/>
					<path id="XMLID_553_" class="st7" d="M40.8,408.5L40.8,408.5L40.8,408.5z"/>
				</g>
				<g>
					<path class="st5" d="M40.8,408.5"/>
					<path id="XMLID_554_" class="st8" d="M40.8,408.5L40.8,408.5L40.8,408.5z"/>
				</g>
				<g>
					<path class="st5" d="M40.8,408.5"/>
					<path id="XMLID_555_" class="st9" d="M40.8,408.5L40.8,408.5L40.8,408.5z"/>
				</g>
				<g>
					<path class="st5" d="M40.8,408.5"/>
					<path id="XMLID_556_" class="st10" d="M40.8,408.5L40.8,408.5L40.8,408.5z"/>
				</g>
				<g>
					<path class="st5" d="M40.8,408.5"/>
					<path id="XMLID_557_" class="st11" d="M40.8,408.5L40.8,408.5L40.8,408.5z"/>
				</g>
				<g>
					<path class="st5" d="M40.8,408.5"/>
					<path id="XMLID_558_" class="st12" d="M40.8,408.5L40.8,408.5L40.8,408.5z"/>
				</g>
				<g>
					<path class="st5" d="M40.8,408.5"/>
					<path id="XMLID_559_" class="st13" d="M40.8,408.5L40.8,408.5L40.8,408.5z"/>
				</g>
				<g>
					<path class="st5" d="M40.8,408.5"/>
					<path id="XMLID_560_" class="st14" d="M40.8,408.5L40.8,408.5L40.8,408.5z"/>
				</g>
				<g>
					<path class="st5" d="M40.8,408.5"/>
					<path id="XMLID_561_" class="st15" d="M40.8,408.5L40.8,408.5L40.8,408.5z"/>
				</g>
				<g>
					<path class="st5" d="M40.8,408.5"/>
					<path id="XMLID_562_" class="st16" d="M40.8,408.5L40.8,408.5L40.8,408.5z"/>
				</g>
				<g>
					<path class="st5" d="M40.8,408.5"/>
					<path id="XMLID_563_" class="st17" d="M40.8,408.5L40.8,408.5L40.8,408.5z"/>
				</g>
				<g>
					<path class="st5" d="M40.8,408.5"/>
					<path id="XMLID_564_" class="st18" d="M40.8,408.5L40.8,408.5L40.8,408.5z"/>
				</g>
				<g>
					<path class="st5" d="M40.8,408.5"/>
					<path id="XMLID_565_" class="st19" d="M40.8,408.5L40.8,408.5L40.8,408.5z"/>
				</g>
				<g>
					<path class="st5" d="M40.8,408.5"/>
					<path id="XMLID_566_" class="st20" d="M40.8,408.5L40.8,408.5L40.8,408.5z"/>
				</g>
				<g>
					<path class="st5" d="M40.8,408.5"/>
					<path id="XMLID_567_" class="st21" d="M40.8,408.5L40.8,408.5L40.8,408.5z"/>
				</g>
				<g>
					<path class="st5" d="M40.8,408.5"/>
					<path id="XMLID_568_" class="st22" d="M40.8,408.5L40.8,408.5L40.8,408.5z"/>
				</g>
				<g>
					<path class="st5" d="M40.8,408.5"/>
					<path id="XMLID_569_" class="st23" d="M40.8,408.5L40.8,408.5L40.8,408.5z"/>
				</g>
				<g>
					<path class="st5" d="M40.8,408.5"/>
					<path id="XMLID_570_" class="st24" d="M40.8,408.5L40.8,408.5L40.8,408.5z"/>
				</g>
				<g>
					<path class="st5" d="M40.8,408.5"/>
					<path id="XMLID_571_" class="st25" d="M40.8,408.5L40.8,408.5L40.8,408.5z"/>
				</g>
				<g>
					<path class="st5" d="M40.8,408.5"/>
					<path id="XMLID_572_" class="st26" d="M40.8,408.5L40.8,408.5L40.8,408.5z"/>
				</g>
				<g>
					<path class="st5" d="M40.8,408.5"/>
					<path id="XMLID_573_" class="st27" d="M40.8,408.5L40.8,408.5L40.8,408.5z"/>
				</g>
				<g>
					<path class="st5" d="M40.8,408.5"/>
					<path id="XMLID_574_" class="st28" d="M40.8,408.5L40.8,408.5L40.8,408.5z"/>
				</g>
				<g>
					<path class="st5" d="M40.8,408.5"/>
					<path id="XMLID_575_" class="st29" d="M40.8,408.5L40.8,408.5L40.8,408.5z"/>
				</g>
				<g>
					<path class="st5" d="M40.8,408.5"/>
					<path id="XMLID_576_" class="st30" d="M40.8,408.5L40.8,408.5L40.8,408.5z"/>
				</g>
				<g>
					<path class="st5" d="M40.8,408.5"/>
					<path id="XMLID_577_" class="st31" d="M40.8,408.5L40.8,408.5L40.8,408.5z"/>
				</g>
				<g>
					<path class="st5" d="M40.8,408.5"/>
					<path id="XMLID_578_" class="st32" d="M40.8,408.5L40.8,408.5L40.8,408.5z"/>
				</g>
				<g>
					<path class="st5" d="M40.8,408.5"/>
					<path id="XMLID_579_" class="st33" d="M40.8,408.5L40.8,408.5L40.8,408.5z"/>
				</g>
				<g>
					<path class="st5" d="M40.8,408.5"/>
					<path id="XMLID_580_" class="st34" d="M40.8,408.5L40.8,408.5L40.8,408.5z"/>
				</g>
				<g>
					<path class="st5" d="M40.8,408.5"/>
					<path id="XMLID_581_" class="st35" d="M40.8,408.5L40.8,408.5L40.8,408.5z"/>
				</g>
				<g>
					<path class="st5" d="M40.8,408.5"/>
					<path id="XMLID_582_" class="st36" d="M40.8,408.5L40.8,408.5L40.8,408.5z"/>
				</g>
				<g>
					<path class="st5" d="M40.8,408.5"/>
					<path id="XMLID_583_" class="st37" d="M40.8,408.5L40.8,408.5L40.8,408.5z"/>
				</g>
				<g>
					<path class="st5" d="M40.8,408.5"/>
					<path id="XMLID_584_" class="st38" d="M40.8,408.5L40.8,408.5L40.8,408.5z"/>
				</g>
				<g>
					<path class="st5" d="M40.8,408.5"/>
					<path id="XMLID_585_" class="st39" d="M40.8,408.5L40.8,408.5L40.8,408.5z"/>
				</g>
				<g>
					<path class="st5" d="M40.8,408.5"/>
					<path id="XMLID_586_" class="st40" d="M40.8,408.5L40.8,408.5L40.8,408.5z"/>
				</g>
				<g>
					<path class="st5" d="M40.8,408.5"/>
					<path id="XMLID_587_" class="st41" d="M40.8,408.5L40.8,408.5L40.8,408.5z"/>
				</g>
				<g>
					<path class="st5" d="M40.8,408.5"/>
					<path id="XMLID_588_" class="st42" d="M40.8,408.5L40.8,408.5L40.8,408.5z"/>
				</g>
				<g>
					<path class="st5" d="M40.8,408.5"/>
					<path id="XMLID_589_" class="st43" d="M40.8,408.5L40.8,408.5L40.8,408.5z"/>
				</g>
				<g>
					<path class="st5" d="M40.8,408.5"/>
					<path id="XMLID_590_" class="st44" d="M40.8,408.5L40.8,408.5L40.8,408.5z"/>
				</g>
				<g>
					<path class="st5" d="M40.8,408.5"/>
					<path id="XMLID_591_" class="st45" d="M40.8,408.5L40.8,408.5L40.8,408.5z"/>
				</g>
				<g>
					<path class="st5" d="M40.8,408.5"/>
					<path id="XMLID_592_" class="st46" d="M40.8,408.5L40.8,408.5L40.8,408.5z"/>
				</g>
				<g>
					<path class="st5" d="M40.8,408.5"/>
					<path id="XMLID_593_" class="st47" d="M40.8,408.5L40.8,408.5L40.8,408.5z"/>
				</g>
				<g>
					<path class="st5" d="M40.8,408.5"/>
					<path id="XMLID_594_" class="st48" d="M40.8,408.5L40.8,408.5L40.8,408.5z"/>
				</g>
				<g>
					<path class="st5" d="M40.8,408.5"/>
					<path id="XMLID_595_" class="st49" d="M40.8,408.5L40.8,408.5L40.8,408.5z"/>
				</g>
				<g>
					<path class="st5" d="M40.8,408.5"/>
					<path id="XMLID_596_" class="st50" d="M40.8,408.5L40.8,408.5L40.8,408.5z"/>
				</g>
				<g>
					<path class="st5" d="M40.8,408.5"/>
					<path id="XMLID_597_" class="st51" d="M40.8,408.5L40.8,408.5L40.8,408.5z"/>
				</g>
				<g>
					<path class="st5" d="M40.8,408.5"/>
					<path id="XMLID_598_" class="st52" d="M40.8,408.5L40.8,408.5L40.8,408.5z"/>
				</g>
				<g>
					<path class="st5" d="M40.8,408.5"/>
					<path id="XMLID_599_" class="st53" d="M40.8,408.5L40.8,408.5L40.8,408.5z"/>
				</g>
				<g>
					<path class="st5" d="M40.8,408.5"/>
					<path id="XMLID_600_" class="st54" d="M40.8,408.5L40.8,408.5L40.8,408.5z"/>
				</g>
				<g>
					<path class="st5" d="M40.8,408.5"/>
					<path id="XMLID_601_" class="st55" d="M40.8,408.5L40.8,408.5L40.8,408.5z"/>
				</g>
				<g>
					<path class="st5" d="M40.8,408.5"/>
					<path id="XMLID_602_" class="st56" d="M40.8,408.5L40.8,408.5L40.8,408.5z"/>
				</g>
				<g>
					<path class="st5" d="M40.8,408.5"/>
					<path id="XMLID_603_" class="st57" d="M40.8,408.5L40.8,408.5L40.8,408.5z"/>
				</g>
				<g>
					<path class="st5" d="M40.8,408.5"/>
					<path id="XMLID_604_" class="st58" d="M40.8,408.5L40.8,408.5L40.8,408.5z"/>
				</g>
				<g>
					<path class="st5" d="M40.8,408.5"/>
					<path id="XMLID_605_" class="st59" d="M40.8,408.5L40.8,408.5L40.8,408.5z"/>
				</g>
				<g>
					<path class="st5" d="M40.8,408.5"/>
					<path id="XMLID_606_" class="st60" d="M40.8,408.5L40.8,408.5L40.8,408.5z"/>
				</g>
				<g>
					<path class="st5" d="M40.8,408.5"/>
					<path id="XMLID_607_" class="st61" d="M40.8,408.5L40.8,408.5L40.8,408.5z"/>
				</g>
				<g>
					<path class="st5" d="M40.8,408.5"/>
					<path id="XMLID_608_" class="st62" d="M40.8,408.5L40.8,408.5L40.8,408.5z"/>
				</g>
				<g>
					<path class="st5" d="M40.8,408.5"/>
					<path id="XMLID_609_" class="st63" d="M40.8,408.5L40.8,408.5L40.8,408.5z"/>
				</g>
				<g>
					<path class="st5" d="M40.8,408.5"/>
					<path id="XMLID_610_" class="st64" d="M40.8,408.5L40.8,408.5L40.8,408.5z"/>
				</g>
				<g>
					<path class="st5" d="M40.8,408.5"/>
					<path id="XMLID_611_" class="st65" d="M40.8,408.5L40.8,408.5L40.8,408.5z"/>
				</g>
				<g>
					<path class="st5" d="M40.8,408.5"/>
					<path id="XMLID_612_" class="st66" d="M40.8,408.5L40.8,408.5L40.8,408.5z"/>
				</g>
				<g>
					<path class="st5" d="M40.8,408.5"/>
					<path id="XMLID_613_" class="st67" d="M40.8,408.5L40.8,408.5L40.8,408.5z"/>
				</g>
				<g>
					<path class="st5" d="M40.8,408.5"/>
					<path id="XMLID_614_" class="st68" d="M40.8,408.5L40.8,408.5L40.8,408.5z"/>
				</g>
				<g>
					<path class="st5" d="M40.8,408.5"/>
					<path id="XMLID_615_" class="st69" d="M40.8,408.5L40.8,408.5L40.8,408.5z"/>
				</g>
				<g>
					<path class="st5" d="M40.8,408.5"/>
					<path id="XMLID_616_" class="st70" d="M40.8,408.5L40.8,408.5L40.8,408.5z"/>
				</g>
				<g>
					<path class="st5" d="M40.8,408.5"/>
					<path id="XMLID_617_" class="st71" d="M40.8,408.5L40.8,408.5L40.8,408.5z"/>
				</g>
				<g>
					<path class="st5" d="M40.8,408.5"/>
					<path id="XMLID_618_" class="st72" d="M40.8,408.5L40.8,408.5L40.8,408.5z"/>
				</g>
				<g>
					<path class="st5" d="M40.8,408.5"/>
					<path id="XMLID_619_" class="st73" d="M40.8,408.5L40.8,408.5L40.8,408.5z"/>
				</g>
				<g>
					<path class="st5" d="M40.8,408.5"/>
					<path id="XMLID_620_" class="st74" d="M40.8,408.5L40.8,408.5L40.8,408.5z"/>
				</g>
				<g>
					<path class="st5" d="M40.8,408.5"/>
					<path id="XMLID_621_" class="st75" d="M40.8,408.5L40.8,408.5L40.8,408.5z"/>
				</g>
				<g>
					<path class="st5" d="M40.8,408.5"/>
					<path id="XMLID_622_" class="st76" d="M40.8,408.5L40.8,408.5L40.8,408.5z"/>
				</g>
				<g>
					<path class="st5" d="M40.8,408.5"/>
					<path id="XMLID_623_" class="st77" d="M40.8,408.5L40.8,408.5L40.8,408.5z"/>
				</g>
				<g>
					<path class="st5" d="M40.8,408.5"/>
					<path id="XMLID_624_" class="st78" d="M40.8,408.5L40.8,408.5L40.8,408.5z"/>
				</g>
				<g>
					<path class="st5" d="M40.8,408.5"/>
					<path id="XMLID_625_" class="st79" d="M40.8,408.5L40.8,408.5L40.8,408.5z"/>
				</g>
				<g>
					<path class="st5" d="M40.8,408.5"/>
					<path id="XMLID_626_" class="st80" d="M40.8,408.5L40.8,408.5L40.8,408.5z"/>
				</g>
				<g>
					<path class="st5" d="M40.8,408.5"/>
					<path id="XMLID_627_" class="st81" d="M40.8,408.5L40.8,408.5L40.8,408.5z"/>
				</g>
				<g>
					<path class="st5" d="M40.8,408.5"/>
					<path id="XMLID_628_" class="st82" d="M40.8,408.5L40.8,408.5L40.8,408.5z"/>
				</g>
				<g>
					<path class="st5" d="M40.8,408.5"/>
					<path id="XMLID_629_" class="st83" d="M40.8,408.5L40.8,408.5L40.8,408.5z"/>
				</g>
				<g>
					<path class="st5" d="M40.8,408.5"/>
					<path id="XMLID_630_" class="st84" d="M40.8,408.5L40.8,408.5L40.8,408.5z"/>
				</g>
				<g>
					<path class="st5" d="M40.8,408.5"/>
					<path id="XMLID_631_" class="st85" d="M40.8,408.5L40.8,408.5L40.8,408.5z"/>
				</g>
				<g>
					<path class="st5" d="M40.8,408.5"/>
					<path id="XMLID_632_" class="st86" d="M40.8,408.5L40.8,408.5L40.8,408.5z"/>
				</g>
				<g>
					<path class="st5" d="M40.8,408.5"/>
					<path id="XMLID_633_" class="st87" d="M40.8,408.5L40.8,408.5L40.8,408.5z"/>
				</g>
				<g>
					<path class="st5" d="M40.8,408.5"/>
					<path id="XMLID_634_" class="st88" d="M40.8,408.5L40.8,408.5L40.8,408.5z"/>
				</g>
				<g>
					<path class="st5" d="M40.8,408.5"/>
					<path id="XMLID_635_" class="st89" d="M40.8,408.5L40.8,408.5L40.8,408.5z"/>
				</g>
				<g>
					<path class="st5" d="M40.8,408.5"/>
					<path id="XMLID_636_" class="st90" d="M40.8,408.5L40.8,408.5L40.8,408.5z"/>
				</g>
				<g>
					<path class="st5" d="M40.8,408.5"/>
					<path id="XMLID_637_" class="st91" d="M40.8,408.5L40.8,408.5L40.8,408.5z"/>
				</g>
				<g>
					<path class="st5" d="M40.8,408.5"/>
					<path id="XMLID_638_" class="st92" d="M40.8,408.5L40.8,408.5L40.8,408.5z"/>
				</g>
				<g>
					<path class="st5" d="M40.8,408.5"/>
					<path id="XMLID_639_" class="st93" d="M40.8,408.5L40.8,408.5L40.8,408.5z"/>
				</g>
				<g>
					<path class="st5" d="M40.8,408.5"/>
					<path id="XMLID_640_" class="st94" d="M40.8,408.5L40.8,408.5L40.8,408.5z"/>
				</g>
				<g>
					<path class="st5" d="M40.8,408.5"/>
					<path id="XMLID_641_" class="st95" d="M40.8,408.5L40.8,408.5L40.8,408.5z"/>
				</g>
				<g>
					<path class="st5" d="M40.8,408.5"/>
					<path id="XMLID_642_" class="st96" d="M40.8,408.5L40.8,408.5L40.8,408.5z"/>
				</g>
				<g>
					<path class="st5" d="M40.8,408.5"/>
					<path id="XMLID_643_" class="st97" d="M40.8,408.5L40.8,408.5L40.8,408.5z"/>
				</g>
				<g>
					<path class="st5" d="M40.8,408.5"/>
					<path id="XMLID_644_" class="st98" d="M40.8,408.5L40.8,408.5L40.8,408.5z"/>
				</g>
				<g>
					<path class="st5" d="M40.8,408.5"/>
					<path id="XMLID_645_" class="st99" d="M40.8,408.5L40.8,408.5L40.8,408.5z"/>
				</g>
				<g>
					<path class="st5" d="M40.8,408.5"/>
					<path id="XMLID_646_" class="st100" d="M40.8,408.5L40.8,408.5L40.8,408.5z"/>
				</g>
				<g>
					<path class="st5" d="M40.8,408.5"/>
					<path id="XMLID_647_" class="st101" d="M40.8,408.5L40.8,408.5L40.8,408.5z"/>
				</g>
				<g>
					<path class="st5" d="M40.8,408.5"/>
					<path id="XMLID_648_" class="st102" d="M40.8,408.5L40.8,408.5L40.8,408.5z"/>
				</g>
				<g>
					<path class="st5" d="M40.8,408.5"/>
					<path id="XMLID_649_" class="st103" d="M40.8,408.5L40.8,408.5L40.8,408.5z"/>
				</g>
				<g>
					<path class="st5" d="M40.8,408.5"/>
					<path id="XMLID_650_" class="st104" d="M40.8,408.5L40.8,408.5L40.8,408.5z"/>
				</g>
				<g>
					<path class="st5" d="M40.8,408.5"/>
					<path id="XMLID_651_" class="st105" d="M40.8,408.5L40.8,408.5L40.8,408.5z"/>
				</g>
				<g>
					<path class="st5" d="M40.8,408.5"/>
					<path id="XMLID_652_" class="st106" d="M40.8,408.5L40.8,408.5L40.8,408.5z"/>
				</g>
				<g>
					<path class="st5" d="M40.8,408.5"/>
					<path id="XMLID_653_" class="st107" d="M40.8,408.5L40.8,408.5L40.8,408.5z"/>
				</g>
				<g>
					<path class="st5" d="M40.8,408.5"/>
					<path id="XMLID_654_" class="st108" d="M40.8,408.5L40.8,408.5L40.8,408.5z"/>
				</g>
				<g>
					<path class="st5" d="M40.8,408.5"/>
					<path id="XMLID_655_" class="st109" d="M40.8,408.5L40.8,408.5L40.8,408.5z"/>
				</g>
				<g>
					<path class="st5" d="M40.8,408.5"/>
					<path id="XMLID_656_" class="st110" d="M40.8,408.5L40.8,408.5L40.8,408.5z"/>
				</g>
				<g>
					<path class="st5" d="M40.8,408.5"/>
					<path id="XMLID_657_" class="st111" d="M40.8,408.5L40.8,408.5L40.8,408.5z"/>
				</g>
				<g>
					<path class="st5" d="M40.8,408.5"/>
					<path id="XMLID_658_" class="st112" d="M40.8,408.5L40.8,408.5L40.8,408.5z"/>
				</g>
				<g>
					<path class="st5" d="M40.8,408.5"/>
					<path id="XMLID_659_" class="st112" d="M40.8,408.5L40.8,408.5L40.8,408.5z"/>
				</g>
				<g>
					<path class="st5" d="M40.8,408.5"/>
					<path id="XMLID_660_" class="st111" d="M40.8,408.5L40.8,408.5L40.8,408.5z"/>
				</g>
				<g>
					<path class="st5" d="M40.8,408.5"/>
					<path id="XMLID_661_" class="st110" d="M40.8,408.5L40.8,408.5L40.8,408.5z"/>
				</g>
				<g>
					<path class="st5" d="M40.8,408.5"/>
					<path id="XMLID_662_" class="st109" d="M40.8,408.5L40.8,408.5L40.8,408.5z"/>
				</g>
				<g>
					<path class="st5" d="M40.8,408.5"/>
					<path id="XMLID_663_" class="st108" d="M40.8,408.5L40.8,408.5L40.8,408.5z"/>
				</g>
				<g>
					<path class="st5" d="M40.8,408.5"/>
					<path id="XMLID_664_" class="st107" d="M40.8,408.5L40.8,408.5L40.8,408.5z"/>
				</g>
				<g>
					<path class="st5" d="M40.8,408.5"/>
					<path id="XMLID_665_" class="st106" d="M40.8,408.5L40.8,408.5L40.8,408.5z"/>
				</g>
				<g>
					<path class="st5" d="M40.8,408.5"/>
					<path id="XMLID_666_" class="st105" d="M40.8,408.5L40.8,408.5L40.8,408.5z"/>
				</g>
				<g>
					<path class="st5" d="M40.8,408.5"/>
					<path id="XMLID_667_" class="st104" d="M40.8,408.5L40.8,408.5L40.8,408.5z"/>
				</g>
				<g>
					<path class="st5" d="M40.8,408.5"/>
					<path id="XMLID_668_" class="st103" d="M40.8,408.5L40.8,408.5L40.8,408.5z"/>
				</g>
				<g>
					<path class="st5" d="M40.8,408.5"/>
					<path id="XMLID_669_" class="st102" d="M40.8,408.5L40.8,408.5L40.8,408.5z"/>
				</g>
				<g>
					<path class="st5" d="M40.8,408.5"/>
					<path id="XMLID_670_" class="st101" d="M40.8,408.5L40.8,408.5L40.8,408.5z"/>
				</g>
				<g>
					<path class="st5" d="M40.8,408.5"/>
					<path id="XMLID_671_" class="st100" d="M40.8,408.5L40.8,408.5L40.8,408.5z"/>
				</g>
				<g>
					<path class="st5" d="M40.8,408.5"/>
					<path id="XMLID_672_" class="st99" d="M40.8,408.5L40.8,408.5L40.8,408.5z"/>
				</g>
				<g>
					<path class="st5" d="M40.8,408.5"/>
					<path id="XMLID_673_" class="st98" d="M40.8,408.5L40.8,408.5L40.8,408.5z"/>
				</g>
				<g>
					<path class="st5" d="M40.8,408.5"/>
					<path id="XMLID_674_" class="st97" d="M40.8,408.5L40.8,408.5L40.8,408.5z"/>
				</g>
				<g>
					<path class="st5" d="M40.8,408.5"/>
					<path id="XMLID_675_" class="st96" d="M40.8,408.5L40.8,408.5L40.8,408.5z"/>
				</g>
				<g>
					<path class="st5" d="M40.8,408.5"/>
					<path id="XMLID_676_" class="st95" d="M40.8,408.5L40.8,408.5L40.8,408.5z"/>
				</g>
				<g>
					<path class="st5" d="M40.8,408.5"/>
					<path id="XMLID_677_" class="st94" d="M40.8,408.5L40.8,408.5L40.8,408.5z"/>
				</g>
				<g>
					<path class="st5" d="M40.8,408.5"/>
					<path id="XMLID_678_" class="st93" d="M40.8,408.5L40.8,408.5L40.8,408.5z"/>
				</g>
				<g>
					<path class="st5" d="M40.8,408.5"/>
					<path id="XMLID_679_" class="st92" d="M40.8,408.5L40.8,408.5L40.8,408.5z"/>
				</g>
				<g>
					<path class="st5" d="M40.8,408.5"/>
					<path id="XMLID_680_" class="st91" d="M40.8,408.5L40.8,408.5L40.8,408.5z"/>
				</g>
				<g>
					<path class="st5" d="M40.8,408.5"/>
					<path id="XMLID_681_" class="st90" d="M40.8,408.5L40.8,408.5L40.8,408.5z"/>
				</g>
				<g>
					<path class="st5" d="M40.8,408.5"/>
					<path id="XMLID_682_" class="st89" d="M40.8,408.5L40.8,408.5L40.8,408.5z"/>
				</g>
				<g>
					<path class="st5" d="M40.8,408.5"/>
					<path id="XMLID_683_" class="st88" d="M40.8,408.5L40.8,408.5L40.8,408.5z"/>
				</g>
				<g>
					<path class="st5" d="M40.8,408.5"/>
					<path id="XMLID_684_" class="st87" d="M40.8,408.5L40.8,408.5L40.8,408.5z"/>
				</g>
				<g>
					<path class="st5" d="M40.8,408.5"/>
					<path id="XMLID_685_" class="st86" d="M40.8,408.5L40.8,408.5L40.8,408.5z"/>
				</g>
				<g>
					<path class="st5" d="M40.8,408.5"/>
					<path id="XMLID_686_" class="st85" d="M40.8,408.5L40.8,408.5L40.8,408.5z"/>
				</g>
				<g>
					<path class="st5" d="M40.8,408.5"/>
					<path id="XMLID_687_" class="st84" d="M40.8,408.5L40.8,408.5L40.8,408.5z"/>
				</g>
				<g>
					<path class="st5" d="M40.8,408.5"/>
					<path id="XMLID_688_" class="st83" d="M40.8,408.5L40.8,408.5L40.8,408.5z"/>
				</g>
				<g>
					<path class="st5" d="M40.8,408.5"/>
					<path id="XMLID_689_" class="st82" d="M40.8,408.5L40.8,408.5L40.8,408.5z"/>
				</g>
				<g>
					<path class="st5" d="M40.8,408.5"/>
					<path id="XMLID_690_" class="st81" d="M40.8,408.5L40.8,408.5L40.8,408.5z"/>
				</g>
				<g>
					<path class="st5" d="M40.8,408.5"/>
					<path id="XMLID_691_" class="st80" d="M40.8,408.5L40.8,408.5L40.8,408.5z"/>
				</g>
				<g>
					<path class="st5" d="M40.8,408.5"/>
					<path id="XMLID_692_" class="st79" d="M40.8,408.5L40.8,408.5L40.8,408.5z"/>
				</g>
				<g>
					<path class="st5" d="M40.8,408.5"/>
					<path id="XMLID_693_" class="st78" d="M40.8,408.5L40.8,408.5L40.8,408.5z"/>
				</g>
				<g>
					<path class="st5" d="M40.8,408.5"/>
					<path id="XMLID_694_" class="st77" d="M40.8,408.5L40.8,408.5L40.8,408.5z"/>
				</g>
				<g>
					<path class="st5" d="M40.8,408.5"/>
					<path id="XMLID_695_" class="st76" d="M40.8,408.5L40.8,408.5L40.8,408.5z"/>
				</g>
				<g>
					<path class="st5" d="M40.8,408.5"/>
					<path id="XMLID_696_" class="st75" d="M40.8,408.5L40.8,408.5L40.8,408.5z"/>
				</g>
				<g>
					<path class="st5" d="M40.8,408.5"/>
					<path id="XMLID_697_" class="st74" d="M40.8,408.5L40.8,408.5L40.8,408.5z"/>
				</g>
				<g>
					<path class="st5" d="M40.8,408.5"/>
					<path id="XMLID_698_" class="st73" d="M40.8,408.5L40.8,408.5L40.8,408.5z"/>
				</g>
				<g>
					<path class="st5" d="M40.8,408.5"/>
					<path id="XMLID_699_" class="st72" d="M40.8,408.5L40.8,408.5L40.8,408.5z"/>
				</g>
				<g>
					<path class="st5" d="M40.8,408.5"/>
					<path id="XMLID_700_" class="st71" d="M40.8,408.5L40.8,408.5L40.8,408.5z"/>
				</g>
				<g>
					<path class="st5" d="M40.8,408.5"/>
					<path id="XMLID_701_" class="st70" d="M40.8,408.5L40.8,408.5L40.8,408.5z"/>
				</g>
				<g>
					<path class="st5" d="M40.8,408.5"/>
					<path id="XMLID_702_" class="st69" d="M40.8,408.5L40.8,408.5L40.8,408.5z"/>
				</g>
				<g>
					<path class="st5" d="M40.8,408.5"/>
					<path id="XMLID_703_" class="st68" d="M40.8,408.5L40.8,408.5L40.8,408.5z"/>
				</g>
				<g>
					<path class="st5" d="M40.8,408.5"/>
					<path id="XMLID_704_" class="st67" d="M40.8,408.5L40.8,408.5L40.8,408.5z"/>
				</g>
				<g>
					<path class="st5" d="M40.8,408.5"/>
					<path id="XMLID_705_" class="st66" d="M40.8,408.5L40.8,408.5L40.8,408.5z"/>
				</g>
				<g>
					<path class="st5" d="M40.8,408.5"/>
					<path id="XMLID_706_" class="st65" d="M40.8,408.5L40.8,408.5L40.8,408.5z"/>
				</g>
				<g>
					<path class="st5" d="M40.8,408.5"/>
					<path id="XMLID_707_" class="st64" d="M40.8,408.5L40.8,408.5L40.8,408.5z"/>
				</g>
				<g>
					<path class="st5" d="M40.8,408.5"/>
					<path id="XMLID_708_" class="st63" d="M40.8,408.5L40.8,408.5L40.8,408.5z"/>
				</g>
				<g>
					<path class="st5" d="M40.8,408.5"/>
					<path id="XMLID_709_" class="st62" d="M40.8,408.5L40.8,408.5L40.8,408.5z"/>
				</g>
				<g>
					<path class="st5" d="M40.8,408.5"/>
					<path id="XMLID_710_" class="st61" d="M40.8,408.5L40.8,408.5L40.8,408.5z"/>
				</g>
				<g>
					<path class="st5" d="M40.8,408.5"/>
					<path id="XMLID_711_" class="st60" d="M40.8,408.5L40.8,408.5L40.8,408.5z"/>
				</g>
				<g>
					<path class="st5" d="M40.8,408.5"/>
					<path id="XMLID_712_" class="st59" d="M40.8,408.5L40.8,408.5L40.8,408.5z"/>
				</g>
				<g>
					<path class="st5" d="M40.8,408.5"/>
					<path id="XMLID_713_" class="st58" d="M40.8,408.5L40.8,408.5L40.8,408.5z"/>
				</g>
				<g>
					<path class="st5" d="M40.8,408.5"/>
					<path id="XMLID_714_" class="st57" d="M40.8,408.5L40.8,408.5L40.8,408.5z"/>
				</g>
				<g>
					<path class="st5" d="M40.8,408.5"/>
					<path id="XMLID_715_" class="st56" d="M40.8,408.5L40.8,408.5L40.8,408.5z"/>
				</g>
				<g>
					<path class="st5" d="M40.8,408.5"/>
					<path id="XMLID_716_" class="st55" d="M40.8,408.5L40.8,408.5L40.8,408.5z"/>
				</g>
				<g>
					<path class="st5" d="M40.8,408.5"/>
					<path id="XMLID_717_" class="st54" d="M40.8,408.5L40.8,408.5L40.8,408.5z"/>
				</g>
				<g>
					<path class="st5" d="M40.8,408.5"/>
					<path id="XMLID_718_" class="st53" d="M40.8,408.5L40.8,408.5L40.8,408.5z"/>
				</g>
				<g>
					<path class="st5" d="M40.8,408.5"/>
					<path id="XMLID_719_" class="st52" d="M40.8,408.5L40.8,408.5L40.8,408.5z"/>
				</g>
				<g>
					<path class="st5" d="M40.8,408.5"/>
					<path id="XMLID_720_" class="st51" d="M40.8,408.5L40.8,408.5L40.8,408.5z"/>
				</g>
				<g>
					<path class="st5" d="M40.8,408.5"/>
					<path id="XMLID_721_" class="st50" d="M40.8,408.5L40.8,408.5L40.8,408.5z"/>
				</g>
				<g>
					<path class="st5" d="M40.8,408.5"/>
					<path id="XMLID_722_" class="st49" d="M40.8,408.5L40.8,408.5L40.8,408.5z"/>
				</g>
				<g>
					<path class="st5" d="M40.8,408.5"/>
					<path id="XMLID_723_" class="st48" d="M40.8,408.5L40.8,408.5L40.8,408.5z"/>
				</g>
				<g>
					<path class="st5" d="M40.8,408.5"/>
					<path id="XMLID_724_" class="st47" d="M40.8,408.5L40.8,408.5L40.8,408.5z"/>
				</g>
				<g>
					<path class="st5" d="M40.8,408.5"/>
					<path id="XMLID_725_" class="st46" d="M40.8,408.5L40.8,408.5L40.8,408.5z"/>
				</g>
				<g>
					<path class="st5" d="M40.8,408.5"/>
					<path id="XMLID_726_" class="st45" d="M40.8,408.5L40.8,408.5L40.8,408.5z"/>
				</g>
				<g>
					<path class="st5" d="M40.8,408.5"/>
					<path id="XMLID_727_" class="st44" d="M40.8,408.5L40.8,408.5L40.8,408.5z"/>
				</g>
				<g>
					<path class="st5" d="M40.8,408.5"/>
					<path id="XMLID_728_" class="st43" d="M40.8,408.5L40.8,408.5L40.8,408.5z"/>
				</g>
				<g>
					<path class="st5" d="M40.8,408.5"/>
					<path id="XMLID_729_" class="st42" d="M40.8,408.5L40.8,408.5L40.8,408.5z"/>
				</g>
				<g>
					<path class="st5" d="M40.8,408.5"/>
					<path id="XMLID_730_" class="st41" d="M40.8,408.5L40.8,408.5L40.8,408.5z"/>
				</g>
				<g>
					<path class="st5" d="M40.8,408.5"/>
					<path id="XMLID_731_" class="st40" d="M40.8,408.5L40.8,408.5L40.8,408.5z"/>
				</g>
				<g>
					<path class="st5" d="M40.8,408.5"/>
					<path id="XMLID_732_" class="st39" d="M40.8,408.5L40.8,408.5L40.8,408.5z"/>
				</g>
				<g>
					<path class="st5" d="M40.8,408.5"/>
					<path id="XMLID_733_" class="st38" d="M40.8,408.5L40.8,408.5L40.8,408.5z"/>
				</g>
				<g>
					<path class="st5" d="M40.8,408.5"/>
					<path id="XMLID_734_" class="st37" d="M40.8,408.5L40.8,408.5L40.8,408.5z"/>
				</g>
				<g>
					<path class="st5" d="M40.8,408.5"/>
					<path id="XMLID_735_" class="st36" d="M40.8,408.5L40.8,408.5L40.8,408.5z"/>
				</g>
				<g>
					<path class="st5" d="M40.8,408.5"/>
					<path id="XMLID_736_" class="st35" d="M40.8,408.5L40.8,408.5L40.8,408.5z"/>
				</g>
				<g>
					<path class="st5" d="M40.8,408.5"/>
					<path id="XMLID_737_" class="st34" d="M40.8,408.5L40.8,408.5L40.8,408.5z"/>
				</g>
				<g>
					<path class="st5" d="M40.8,408.5"/>
					<path id="XMLID_738_" class="st33" d="M40.8,408.5L40.8,408.5L40.8,408.5z"/>
				</g>
				<g>
					<path class="st5" d="M40.8,408.5"/>
					<path id="XMLID_739_" class="st32" d="M40.8,408.5L40.8,408.5L40.8,408.5z"/>
				</g>
				<g>
					<path class="st5" d="M40.8,408.5"/>
					<path id="XMLID_740_" class="st31" d="M40.8,408.5L40.8,408.5L40.8,408.5z"/>
				</g>
				<g>
					<path class="st5" d="M40.8,408.5"/>
					<path id="XMLID_741_" class="st30" d="M40.8,408.5L40.8,408.5L40.8,408.5z"/>
				</g>
				<g>
					<path class="st5" d="M40.8,408.5"/>
					<path id="XMLID_742_" class="st29" d="M40.8,408.5L40.8,408.5L40.8,408.5z"/>
				</g>
				<g>
					<path class="st5" d="M40.8,408.5"/>
					<path id="XMLID_743_" class="st28" d="M40.8,408.5L40.8,408.5L40.8,408.5z"/>
				</g>
				<g>
					<path class="st5" d="M40.8,408.5"/>
					<path id="XMLID_744_" class="st27" d="M40.8,408.5L40.8,408.5L40.8,408.5z"/>
				</g>
				<g>
					<path class="st5" d="M40.8,408.5"/>
					<path id="XMLID_745_" class="st26" d="M40.8,408.5L40.8,408.5L40.8,408.5z"/>
				</g>
				<g>
					<path class="st5" d="M40.8,408.5"/>
					<path id="XMLID_746_" class="st25" d="M40.8,408.5L40.8,408.5L40.8,408.5z"/>
				</g>
				<g>
					<path class="st5" d="M40.8,408.5"/>
					<path id="XMLID_747_" class="st24" d="M40.8,408.5L40.8,408.5L40.8,408.5z"/>
				</g>
				<g>
					<path class="st5" d="M40.8,408.5"/>
					<path id="XMLID_748_" class="st23" d="M40.8,408.5L40.8,408.5L40.8,408.5z"/>
				</g>
				<g>
					<path class="st5" d="M40.8,408.5"/>
					<path id="XMLID_749_" class="st22" d="M40.8,408.5L40.8,408.5L40.8,408.5z"/>
				</g>
				<g>
					<path class="st5" d="M40.8,408.5"/>
					<path id="XMLID_750_" class="st21" d="M40.8,408.5L40.8,408.5L40.8,408.5z"/>
				</g>
				<g>
					<path class="st5" d="M40.8,408.5"/>
					<path id="XMLID_751_" class="st20" d="M40.8,408.5L40.8,408.5L40.8,408.5z"/>
				</g>
				<g>
					<path class="st5" d="M40.8,408.5"/>
					<path id="XMLID_752_" class="st19" d="M40.8,408.5L40.8,408.5L40.8,408.5z"/>
				</g>
				<g>
					<path class="st5" d="M40.8,408.5"/>
					<path id="XMLID_753_" class="st18" d="M40.8,408.5L40.8,408.5L40.8,408.5z"/>
				</g>
				<g>
					<path class="st5" d="M40.8,408.5"/>
					<path id="XMLID_754_" class="st17" d="M40.8,408.5L40.8,408.5L40.8,408.5z"/>
				</g>
				<g>
					<path class="st5" d="M40.8,408.5"/>
					<path id="XMLID_755_" class="st16" d="M40.8,408.5L40.8,408.5L40.8,408.5z"/>
				</g>
				<g>
					<path class="st5" d="M40.8,408.5"/>
					<path id="XMLID_756_" class="st15" d="M40.8,408.5L40.8,408.5L40.8,408.5z"/>
				</g>
				<g>
					<path class="st5" d="M40.8,408.5"/>
					<path id="XMLID_757_" class="st14" d="M40.8,408.5L40.8,408.5L40.8,408.5z"/>
				</g>
				<g>
					<path class="st5" d="M40.8,408.5"/>
					<path id="XMLID_758_" class="st13" d="M40.8,408.5L40.8,408.5L40.8,408.5z"/>
				</g>
				<g>
					<path class="st5" d="M40.8,408.5"/>
					<path id="XMLID_759_" class="st12" d="M40.8,408.5L40.8,408.5L40.8,408.5z"/>
				</g>
				<g>
					<path class="st5" d="M40.8,408.5"/>
					<path id="XMLID_760_" class="st11" d="M40.8,408.5L40.8,408.5L40.8,408.5z"/>
				</g>
				<g>
					<path class="st5" d="M40.8,408.5"/>
					<path id="XMLID_761_" class="st10" d="M40.8,408.5L40.8,408.5L40.8,408.5z"/>
				</g>
				<g>
					<path class="st5" d="M40.8,408.5"/>
					<path id="XMLID_762_" class="st9" d="M40.8,408.5L40.8,408.5L40.8,408.5z"/>
				</g>
				<g>
					<path class="st5" d="M40.8,408.5"/>
					<path id="XMLID_763_" class="st8" d="M40.8,408.5L40.8,408.5L40.8,408.5z"/>
				</g>
				<g>
					<path class="st5" d="M40.8,408.5"/>
					<path id="XMLID_764_" class="st7" d="M40.8,408.5L40.8,408.5L40.8,408.5z"/>
				</g>
				<g>
					<path class="st5" d="M40.8,408.5"/>
					<path id="XMLID_765_" class="st6" d="M40.8,408.5L40.8,408.5L40.8,408.5z"/>
				</g>
				<g>
					<path class="st5" d="M40.8,408.5"/>
					<path id="XMLID_766_" class="st6" d="M40.8,408.5L40.8,408.5L40.8,408.5z"/>
				</g>
			</g>
		</g>
		<g id="XMLID_4_">
			<g id="XMLID_331_">
				<g>
					<path class="st5" d="M40.5,410"/>
					<path id="XMLID_333_" class="st6" d="M40.5,410L40.5,410L40.5,410z"/>
				</g>
				<g>
					<path class="st5" d="M40.5,410"/>
					<path id="XMLID_334_" class="st6" d="M40.5,410L40.5,410L40.5,410z"/>
				</g>
				<g>
					<path class="st5" d="M40.5,410"/>
					<path id="XMLID_335_" class="st7" d="M40.5,410L40.5,410L40.5,410z"/>
				</g>
				<g>
					<path class="st5" d="M40.5,410"/>
					<path id="XMLID_336_" class="st8" d="M40.5,410L40.5,410L40.5,410z"/>
				</g>
				<g>
					<path class="st5" d="M40.5,410"/>
					<path id="XMLID_337_" class="st9" d="M40.5,410L40.5,410L40.5,410z"/>
				</g>
				<g>
					<path class="st5" d="M40.5,410"/>
					<path id="XMLID_338_" class="st10" d="M40.5,410L40.5,410L40.5,410z"/>
				</g>
				<g>
					<path class="st5" d="M40.5,410"/>
					<path id="XMLID_339_" class="st11" d="M40.5,410L40.5,410L40.5,410z"/>
				</g>
				<g>
					<path class="st5" d="M40.5,410"/>
					<path id="XMLID_340_" class="st12" d="M40.5,410L40.5,410L40.5,410z"/>
				</g>
				<g>
					<path class="st5" d="M40.5,410"/>
					<path id="XMLID_341_" class="st13" d="M40.5,410L40.5,410L40.5,410z"/>
				</g>
				<g>
					<path class="st5" d="M40.5,410"/>
					<path id="XMLID_342_" class="st14" d="M40.5,410L40.5,410L40.5,410z"/>
				</g>
				<g>
					<path class="st5" d="M40.5,410"/>
					<path id="XMLID_343_" class="st15" d="M40.5,410L40.5,410L40.5,410z"/>
				</g>
				<g>
					<path class="st5" d="M40.5,410"/>
					<path id="XMLID_344_" class="st16" d="M40.5,410L40.5,410L40.5,410z"/>
				</g>
				<g>
					<path class="st5" d="M40.5,410"/>
					<path id="XMLID_345_" class="st17" d="M40.5,410L40.5,410L40.5,410z"/>
				</g>
				<g>
					<path class="st5" d="M40.5,410"/>
					<path id="XMLID_346_" class="st18" d="M40.5,410L40.5,410L40.5,410z"/>
				</g>
				<g>
					<path class="st5" d="M40.5,410"/>
					<path id="XMLID_347_" class="st19" d="M40.5,410L40.5,410L40.5,410z"/>
				</g>
				<g>
					<path class="st5" d="M40.5,410"/>
					<path id="XMLID_348_" class="st20" d="M40.5,410L40.5,410L40.5,410z"/>
				</g>
				<g>
					<path class="st5" d="M40.5,410"/>
					<path id="XMLID_349_" class="st21" d="M40.5,410L40.5,410L40.5,410z"/>
				</g>
				<g>
					<path class="st5" d="M40.5,410"/>
					<path id="XMLID_350_" class="st22" d="M40.5,410L40.5,410L40.5,410z"/>
				</g>
				<g>
					<path class="st5" d="M40.5,410"/>
					<path id="XMLID_351_" class="st23" d="M40.5,410L40.5,410L40.5,410z"/>
				</g>
				<g>
					<path class="st5" d="M40.5,410"/>
					<path id="XMLID_352_" class="st24" d="M40.5,410L40.5,410L40.5,410z"/>
				</g>
				<g>
					<path class="st5" d="M40.5,410"/>
					<path id="XMLID_353_" class="st25" d="M40.5,410L40.5,410L40.5,410z"/>
				</g>
				<g>
					<path class="st5" d="M40.5,410"/>
					<path id="XMLID_354_" class="st26" d="M40.5,410L40.5,410L40.5,410z"/>
				</g>
				<g>
					<path class="st5" d="M40.5,410"/>
					<path id="XMLID_355_" class="st27" d="M40.5,410L40.5,410L40.5,410z"/>
				</g>
				<g>
					<path class="st5" d="M40.5,410"/>
					<path id="XMLID_356_" class="st28" d="M40.5,410L40.5,410L40.5,410z"/>
				</g>
				<g>
					<path class="st5" d="M40.5,410"/>
					<path id="XMLID_357_" class="st29" d="M40.5,410L40.5,410L40.5,410z"/>
				</g>
				<g>
					<path class="st5" d="M40.5,410"/>
					<path id="XMLID_358_" class="st30" d="M40.5,410L40.5,410L40.5,410z"/>
				</g>
				<g>
					<path class="st5" d="M40.5,410"/>
					<path id="XMLID_359_" class="st31" d="M40.5,410L40.5,410L40.5,410z"/>
				</g>
				<g>
					<path class="st5" d="M40.5,410"/>
					<path id="XMLID_360_" class="st32" d="M40.5,410L40.5,410L40.5,410z"/>
				</g>
				<g>
					<path class="st5" d="M40.5,410"/>
					<path id="XMLID_361_" class="st33" d="M40.5,410L40.5,410L40.5,410z"/>
				</g>
				<g>
					<path class="st5" d="M40.5,410"/>
					<path id="XMLID_362_" class="st34" d="M40.5,410L40.5,410L40.5,410z"/>
				</g>
				<g>
					<path class="st5" d="M40.5,410"/>
					<path id="XMLID_363_" class="st35" d="M40.5,410L40.5,410L40.5,410z"/>
				</g>
				<g>
					<path class="st5" d="M40.5,410"/>
					<path id="XMLID_364_" class="st36" d="M40.5,410L40.5,410L40.5,410z"/>
				</g>
				<g>
					<path class="st5" d="M40.5,410"/>
					<path id="XMLID_365_" class="st37" d="M40.5,410L40.5,410L40.5,410z"/>
				</g>
				<g>
					<path class="st5" d="M40.5,410"/>
					<path id="XMLID_366_" class="st38" d="M40.5,410L40.5,410L40.5,410z"/>
				</g>
				<g>
					<path class="st5" d="M40.5,410"/>
					<path id="XMLID_367_" class="st39" d="M40.5,410L40.5,410L40.5,410z"/>
				</g>
				<g>
					<path class="st5" d="M40.5,410"/>
					<path id="XMLID_368_" class="st40" d="M40.5,410L40.5,410L40.5,410z"/>
				</g>
				<g>
					<path class="st5" d="M40.5,410"/>
					<path id="XMLID_369_" class="st41" d="M40.5,410L40.5,410L40.5,410z"/>
				</g>
				<g>
					<path class="st5" d="M40.5,410"/>
					<path id="XMLID_370_" class="st42" d="M40.5,410L40.5,410L40.5,410z"/>
				</g>
				<g>
					<path class="st5" d="M40.5,410"/>
					<path id="XMLID_371_" class="st43" d="M40.5,410L40.5,410L40.5,410z"/>
				</g>
				<g>
					<path class="st5" d="M40.5,410"/>
					<path id="XMLID_372_" class="st44" d="M40.5,410L40.5,410L40.5,410z"/>
				</g>
				<g>
					<path class="st5" d="M40.5,410"/>
					<path id="XMLID_373_" class="st45" d="M40.5,410L40.5,410L40.5,410z"/>
				</g>
				<g>
					<path class="st5" d="M40.5,410"/>
					<path id="XMLID_374_" class="st46" d="M40.5,410L40.5,410L40.5,410z"/>
				</g>
				<g>
					<path class="st5" d="M40.5,410"/>
					<path id="XMLID_375_" class="st47" d="M40.5,410L40.5,410L40.5,410z"/>
				</g>
				<g>
					<path class="st5" d="M40.5,410"/>
					<path id="XMLID_376_" class="st48" d="M40.5,410L40.5,410L40.5,410z"/>
				</g>
				<g>
					<path class="st5" d="M40.5,410"/>
					<path id="XMLID_377_" class="st49" d="M40.5,410L40.5,410L40.5,410z"/>
				</g>
				<g>
					<path class="st5" d="M40.5,410"/>
					<path id="XMLID_378_" class="st50" d="M40.5,410L40.5,410L40.5,410z"/>
				</g>
				<g>
					<path class="st5" d="M40.5,410"/>
					<path id="XMLID_379_" class="st51" d="M40.5,410L40.5,410L40.5,410z"/>
				</g>
				<g>
					<path class="st5" d="M40.5,410"/>
					<path id="XMLID_380_" class="st52" d="M40.5,410L40.5,410L40.5,410z"/>
				</g>
				<g>
					<path class="st5" d="M40.5,410"/>
					<path id="XMLID_381_" class="st53" d="M40.5,410L40.5,410L40.5,410z"/>
				</g>
				<g>
					<path class="st5" d="M40.5,410"/>
					<path id="XMLID_382_" class="st54" d="M40.5,410L40.5,410L40.5,410z"/>
				</g>
				<g>
					<path class="st5" d="M40.5,410"/>
					<path id="XMLID_383_" class="st55" d="M40.5,410L40.5,410L40.5,410z"/>
				</g>
				<g>
					<path class="st5" d="M40.5,410"/>
					<path id="XMLID_384_" class="st56" d="M40.5,410L40.5,410L40.5,410z"/>
				</g>
				<g>
					<path class="st5" d="M40.5,410"/>
					<path id="XMLID_385_" class="st57" d="M40.5,410L40.5,410L40.5,410z"/>
				</g>
				<g>
					<path class="st5" d="M40.5,410"/>
					<path id="XMLID_386_" class="st58" d="M40.5,410L40.5,410L40.5,410z"/>
				</g>
				<g>
					<path class="st5" d="M40.5,410"/>
					<path id="XMLID_387_" class="st59" d="M40.5,410L40.5,410L40.5,410z"/>
				</g>
				<g>
					<path class="st5" d="M40.5,410"/>
					<path id="XMLID_388_" class="st60" d="M40.5,410L40.5,410L40.5,410z"/>
				</g>
				<g>
					<path class="st5" d="M40.5,410"/>
					<path id="XMLID_389_" class="st61" d="M40.5,410L40.5,410L40.5,410z"/>
				</g>
				<g>
					<path class="st5" d="M40.5,410"/>
					<path id="XMLID_390_" class="st62" d="M40.5,410L40.5,410L40.5,410z"/>
				</g>
				<g>
					<path class="st5" d="M40.5,410"/>
					<path id="XMLID_391_" class="st63" d="M40.5,410L40.5,410L40.5,410z"/>
				</g>
				<g>
					<path class="st5" d="M40.5,410"/>
					<path id="XMLID_392_" class="st64" d="M40.5,410L40.5,410L40.5,410z"/>
				</g>
				<g>
					<path class="st5" d="M40.5,410"/>
					<path id="XMLID_393_" class="st65" d="M40.5,410L40.5,410L40.5,410z"/>
				</g>
				<g>
					<path class="st5" d="M40.5,410"/>
					<path id="XMLID_394_" class="st66" d="M40.5,410L40.5,410L40.5,410z"/>
				</g>
				<g>
					<path class="st5" d="M40.5,410"/>
					<path id="XMLID_395_" class="st67" d="M40.5,410L40.5,410L40.5,410z"/>
				</g>
				<g>
					<path class="st5" d="M40.5,410"/>
					<path id="XMLID_396_" class="st68" d="M40.5,410L40.5,410L40.5,410z"/>
				</g>
				<g>
					<path class="st5" d="M40.5,410"/>
					<path id="XMLID_397_" class="st69" d="M40.5,410L40.5,410L40.5,410z"/>
				</g>
				<g>
					<path class="st5" d="M40.5,410"/>
					<path id="XMLID_398_" class="st70" d="M40.5,410L40.5,410L40.5,410z"/>
				</g>
				<g>
					<path class="st5" d="M40.5,410"/>
					<path id="XMLID_399_" class="st71" d="M40.5,410L40.5,410L40.5,410z"/>
				</g>
				<g>
					<path class="st5" d="M40.5,410"/>
					<path id="XMLID_400_" class="st72" d="M40.5,410L40.5,410L40.5,410z"/>
				</g>
				<g>
					<path class="st5" d="M40.5,410"/>
					<path id="XMLID_401_" class="st73" d="M40.5,410L40.5,410L40.5,410z"/>
				</g>
				<g>
					<path class="st5" d="M40.5,410"/>
					<path id="XMLID_402_" class="st74" d="M40.5,410L40.5,410L40.5,410z"/>
				</g>
				<g>
					<path class="st5" d="M40.5,410"/>
					<path id="XMLID_403_" class="st75" d="M40.5,410L40.5,410L40.5,410z"/>
				</g>
				<g>
					<path class="st5" d="M40.5,410"/>
					<path id="XMLID_404_" class="st76" d="M40.5,410L40.5,410L40.5,410z"/>
				</g>
				<g>
					<path class="st5" d="M40.5,410"/>
					<path id="XMLID_405_" class="st77" d="M40.5,410L40.5,410L40.5,410z"/>
				</g>
				<g>
					<path class="st5" d="M40.5,410"/>
					<path id="XMLID_406_" class="st78" d="M40.5,410L40.5,410L40.5,410z"/>
				</g>
				<g>
					<path class="st5" d="M40.5,410"/>
					<path id="XMLID_407_" class="st79" d="M40.5,410L40.5,410L40.5,410z"/>
				</g>
				<g>
					<path class="st5" d="M40.5,410"/>
					<path id="XMLID_408_" class="st80" d="M40.5,410L40.5,410L40.5,410z"/>
				</g>
				<g>
					<path class="st5" d="M40.5,410"/>
					<path id="XMLID_409_" class="st81" d="M40.5,410L40.5,410L40.5,410z"/>
				</g>
				<g>
					<path class="st5" d="M40.5,410"/>
					<path id="XMLID_410_" class="st82" d="M40.5,410L40.5,410L40.5,410z"/>
				</g>
				<g>
					<path class="st5" d="M40.5,410"/>
					<path id="XMLID_411_" class="st83" d="M40.5,410L40.5,410L40.5,410z"/>
				</g>
				<g>
					<path class="st5" d="M40.5,410"/>
					<path id="XMLID_412_" class="st84" d="M40.5,410L40.5,410L40.5,410z"/>
				</g>
				<g>
					<path class="st5" d="M40.5,410"/>
					<path id="XMLID_413_" class="st85" d="M40.5,410L40.5,410L40.5,410z"/>
				</g>
				<g>
					<path class="st5" d="M40.5,410"/>
					<path id="XMLID_414_" class="st86" d="M40.5,410L40.5,410L40.5,410z"/>
				</g>
				<g>
					<path class="st5" d="M40.5,410"/>
					<path id="XMLID_415_" class="st87" d="M40.5,410L40.5,410L40.5,410z"/>
				</g>
				<g>
					<path class="st5" d="M40.5,410"/>
					<path id="XMLID_416_" class="st88" d="M40.5,410L40.5,410L40.5,410z"/>
				</g>
				<g>
					<path class="st5" d="M40.5,410"/>
					<path id="XMLID_417_" class="st89" d="M40.5,410L40.5,410L40.5,410z"/>
				</g>
				<g>
					<path class="st5" d="M40.5,410"/>
					<path id="XMLID_418_" class="st90" d="M40.5,410L40.5,410L40.5,410z"/>
				</g>
				<g>
					<path class="st5" d="M40.5,410"/>
					<path id="XMLID_419_" class="st91" d="M40.5,410L40.5,410L40.5,410z"/>
				</g>
				<g>
					<path class="st5" d="M40.5,410"/>
					<path id="XMLID_420_" class="st92" d="M40.5,410L40.5,410L40.5,410z"/>
				</g>
				<g>
					<path class="st5" d="M40.5,410"/>
					<path id="XMLID_421_" class="st93" d="M40.5,410L40.5,410L40.5,410z"/>
				</g>
				<g>
					<path class="st5" d="M40.5,410"/>
					<path id="XMLID_422_" class="st94" d="M40.5,410L40.5,410L40.5,410z"/>
				</g>
				<g>
					<path class="st5" d="M40.5,410"/>
					<path id="XMLID_423_" class="st95" d="M40.5,410L40.5,410L40.5,410z"/>
				</g>
				<g>
					<path class="st5" d="M40.5,410"/>
					<path id="XMLID_424_" class="st96" d="M40.5,410L40.5,410L40.5,410z"/>
				</g>
				<g>
					<path class="st5" d="M40.5,410"/>
					<path id="XMLID_425_" class="st97" d="M40.5,410L40.5,410L40.5,410z"/>
				</g>
				<g>
					<path class="st5" d="M40.5,410"/>
					<path id="XMLID_426_" class="st98" d="M40.5,410L40.5,410L40.5,410z"/>
				</g>
				<g>
					<path class="st5" d="M40.5,410"/>
					<path id="XMLID_427_" class="st99" d="M40.5,410L40.5,410L40.5,410z"/>
				</g>
				<g>
					<path class="st5" d="M40.5,410"/>
					<path id="XMLID_428_" class="st100" d="M40.5,410L40.5,410L40.5,410z"/>
				</g>
				<g>
					<path class="st5" d="M40.5,410"/>
					<path id="XMLID_429_" class="st101" d="M40.5,410L40.5,410L40.5,410z"/>
				</g>
				<g>
					<path class="st5" d="M40.5,410"/>
					<path id="XMLID_430_" class="st102" d="M40.5,410L40.5,410L40.5,410z"/>
				</g>
				<g>
					<path class="st5" d="M40.5,410"/>
					<path id="XMLID_431_" class="st103" d="M40.5,410L40.5,410L40.5,410z"/>
				</g>
				<g>
					<path class="st5" d="M40.5,410"/>
					<path id="XMLID_432_" class="st104" d="M40.5,410L40.5,410L40.5,410z"/>
				</g>
				<g>
					<path class="st5" d="M40.5,410"/>
					<path id="XMLID_433_" class="st105" d="M40.5,410L40.5,410L40.5,410z"/>
				</g>
				<g>
					<path class="st5" d="M40.5,410"/>
					<path id="XMLID_434_" class="st106" d="M40.5,410L40.5,410L40.5,410z"/>
				</g>
				<g>
					<path class="st5" d="M40.5,410"/>
					<path id="XMLID_435_" class="st107" d="M40.5,410L40.5,410L40.5,410z"/>
				</g>
				<g>
					<path class="st5" d="M40.5,410"/>
					<path id="XMLID_436_" class="st108" d="M40.5,410L40.5,410L40.5,410z"/>
				</g>
				<g>
					<path class="st5" d="M40.5,410"/>
					<path id="XMLID_437_" class="st109" d="M40.5,410L40.5,410L40.5,410z"/>
				</g>
				<g>
					<path class="st5" d="M40.5,410"/>
					<path id="XMLID_438_" class="st110" d="M40.5,410L40.5,410L40.5,410z"/>
				</g>
				<g>
					<path class="st5" d="M40.5,410"/>
					<path id="XMLID_439_" class="st111" d="M40.5,410L40.5,410L40.5,410z"/>
				</g>
				<g>
					<path class="st5" d="M40.5,410"/>
					<path id="XMLID_440_" class="st112" d="M40.5,410L40.5,410L40.5,410z"/>
				</g>
				<g>
					<path class="st5" d="M40.5,410"/>
					<path id="XMLID_441_" class="st112" d="M40.5,410L40.5,410L40.5,410z"/>
				</g>
				<g>
					<path class="st5" d="M40.5,410"/>
					<path id="XMLID_442_" class="st111" d="M40.5,410L40.5,410L40.5,410z"/>
				</g>
				<g>
					<path class="st5" d="M40.5,410"/>
					<path id="XMLID_443_" class="st110" d="M40.5,410L40.5,410L40.5,410z"/>
				</g>
				<g>
					<path class="st5" d="M40.5,410"/>
					<path id="XMLID_444_" class="st109" d="M40.5,410L40.5,410L40.5,410z"/>
				</g>
				<g>
					<path class="st5" d="M40.5,410"/>
					<path id="XMLID_445_" class="st108" d="M40.5,410L40.5,410L40.5,410z"/>
				</g>
				<g>
					<path class="st5" d="M40.5,410"/>
					<path id="XMLID_446_" class="st107" d="M40.5,410L40.5,410L40.5,410z"/>
				</g>
				<g>
					<path class="st5" d="M40.5,410"/>
					<path id="XMLID_447_" class="st106" d="M40.5,410L40.5,410L40.5,410z"/>
				</g>
				<g>
					<path class="st5" d="M40.5,410"/>
					<path id="XMLID_448_" class="st105" d="M40.5,410L40.5,410L40.5,410z"/>
				</g>
				<g>
					<path class="st5" d="M40.5,410"/>
					<path id="XMLID_449_" class="st104" d="M40.5,410L40.5,410L40.5,410z"/>
				</g>
				<g>
					<path class="st5" d="M40.5,410"/>
					<path id="XMLID_450_" class="st103" d="M40.5,410L40.5,410L40.5,410z"/>
				</g>
				<g>
					<path class="st5" d="M40.5,410"/>
					<path id="XMLID_451_" class="st102" d="M40.5,410L40.5,410L40.5,410z"/>
				</g>
				<g>
					<path class="st5" d="M40.5,410"/>
					<path id="XMLID_452_" class="st101" d="M40.5,410L40.5,410L40.5,410z"/>
				</g>
				<g>
					<path class="st5" d="M40.5,410"/>
					<path id="XMLID_453_" class="st100" d="M40.5,410L40.5,410L40.5,410z"/>
				</g>
				<g>
					<path class="st5" d="M40.5,410"/>
					<path id="XMLID_454_" class="st99" d="M40.5,410L40.5,410L40.5,410z"/>
				</g>
				<g>
					<path class="st5" d="M40.5,410"/>
					<path id="XMLID_455_" class="st98" d="M40.5,410L40.5,410L40.5,410z"/>
				</g>
				<g>
					<path class="st5" d="M40.5,410"/>
					<path id="XMLID_456_" class="st97" d="M40.5,410L40.5,410L40.5,410z"/>
				</g>
				<g>
					<path class="st5" d="M40.5,410"/>
					<path id="XMLID_457_" class="st96" d="M40.5,410L40.5,410L40.5,410z"/>
				</g>
				<g>
					<path class="st5" d="M40.5,410"/>
					<path id="XMLID_458_" class="st95" d="M40.5,410L40.5,410L40.5,410z"/>
				</g>
				<g>
					<path class="st5" d="M40.5,410"/>
					<path id="XMLID_459_" class="st94" d="M40.5,410L40.5,410L40.5,410z"/>
				</g>
				<g>
					<path class="st5" d="M40.5,410"/>
					<path id="XMLID_460_" class="st93" d="M40.5,410L40.5,410L40.5,410z"/>
				</g>
				<g>
					<path class="st5" d="M40.5,410"/>
					<path id="XMLID_461_" class="st92" d="M40.5,410L40.5,410L40.5,410z"/>
				</g>
				<g>
					<path class="st5" d="M40.5,410"/>
					<path id="XMLID_462_" class="st91" d="M40.5,410L40.5,410L40.5,410z"/>
				</g>
				<g>
					<path class="st5" d="M40.5,410"/>
					<path id="XMLID_463_" class="st90" d="M40.5,410L40.5,410L40.5,410z"/>
				</g>
				<g>
					<path class="st5" d="M40.5,410"/>
					<path id="XMLID_464_" class="st89" d="M40.5,410L40.5,410L40.5,410z"/>
				</g>
				<g>
					<path class="st5" d="M40.5,410"/>
					<path id="XMLID_465_" class="st88" d="M40.5,410L40.5,410L40.5,410z"/>
				</g>
				<g>
					<path class="st5" d="M40.5,410"/>
					<path id="XMLID_466_" class="st87" d="M40.5,410L40.5,410L40.5,410z"/>
				</g>
				<g>
					<path class="st5" d="M40.5,410"/>
					<path id="XMLID_467_" class="st86" d="M40.5,410L40.5,410L40.5,410z"/>
				</g>
				<g>
					<path class="st5" d="M40.5,410"/>
					<path id="XMLID_468_" class="st85" d="M40.5,410L40.5,410L40.5,410z"/>
				</g>
				<g>
					<path class="st5" d="M40.5,410"/>
					<path id="XMLID_469_" class="st84" d="M40.5,410L40.5,410L40.5,410z"/>
				</g>
				<g>
					<path class="st5" d="M40.5,410"/>
					<path id="XMLID_470_" class="st83" d="M40.5,410L40.5,410L40.5,410z"/>
				</g>
				<g>
					<path class="st5" d="M40.5,410"/>
					<path id="XMLID_471_" class="st82" d="M40.5,410L40.5,410L40.5,410z"/>
				</g>
				<g>
					<path class="st5" d="M40.5,410"/>
					<path id="XMLID_472_" class="st81" d="M40.5,410L40.5,410L40.5,410z"/>
				</g>
				<g>
					<path class="st5" d="M40.5,410"/>
					<path id="XMLID_473_" class="st80" d="M40.5,410L40.5,410L40.5,410z"/>
				</g>
				<g>
					<path class="st5" d="M40.5,410"/>
					<path id="XMLID_474_" class="st79" d="M40.5,410L40.5,410L40.5,410z"/>
				</g>
				<g>
					<path class="st5" d="M40.5,410"/>
					<path id="XMLID_475_" class="st78" d="M40.5,410L40.5,410L40.5,410z"/>
				</g>
				<g>
					<path class="st5" d="M40.5,410"/>
					<path id="XMLID_476_" class="st77" d="M40.5,410L40.5,410L40.5,410z"/>
				</g>
				<g>
					<path class="st5" d="M40.5,410"/>
					<path id="XMLID_477_" class="st76" d="M40.5,410L40.5,410L40.5,410z"/>
				</g>
				<g>
					<path class="st5" d="M40.5,410"/>
					<path id="XMLID_478_" class="st75" d="M40.5,410L40.5,410L40.5,410z"/>
				</g>
				<g>
					<path class="st5" d="M40.5,410"/>
					<path id="XMLID_479_" class="st74" d="M40.5,410L40.5,410L40.5,410z"/>
				</g>
				<g>
					<path class="st5" d="M40.5,410"/>
					<path id="XMLID_480_" class="st73" d="M40.5,410L40.5,410L40.5,410z"/>
				</g>
				<g>
					<path class="st5" d="M40.5,410"/>
					<path id="XMLID_481_" class="st72" d="M40.5,410L40.5,410L40.5,410z"/>
				</g>
				<g>
					<path class="st5" d="M40.5,410"/>
					<path id="XMLID_482_" class="st71" d="M40.5,410L40.5,410L40.5,410z"/>
				</g>
				<g>
					<path class="st5" d="M40.5,410"/>
					<path id="XMLID_483_" class="st70" d="M40.5,410L40.5,410L40.5,410z"/>
				</g>
				<g>
					<path class="st5" d="M40.5,410"/>
					<path id="XMLID_484_" class="st69" d="M40.5,410L40.5,410L40.5,410z"/>
				</g>
				<g>
					<path class="st5" d="M40.5,410"/>
					<path id="XMLID_485_" class="st68" d="M40.5,410L40.5,410L40.5,410z"/>
				</g>
				<g>
					<path class="st5" d="M40.5,410"/>
					<path id="XMLID_486_" class="st67" d="M40.5,410L40.5,410L40.5,410z"/>
				</g>
				<g>
					<path class="st5" d="M40.5,410"/>
					<path id="XMLID_487_" class="st66" d="M40.5,410L40.5,410L40.5,410z"/>
				</g>
				<g>
					<path class="st5" d="M40.5,410"/>
					<path id="XMLID_488_" class="st65" d="M40.5,410L40.5,410L40.5,410z"/>
				</g>
				<g>
					<path class="st5" d="M40.5,410"/>
					<path id="XMLID_489_" class="st64" d="M40.5,410L40.5,410L40.5,410z"/>
				</g>
				<g>
					<path class="st5" d="M40.5,410"/>
					<path id="XMLID_490_" class="st63" d="M40.5,410L40.5,410L40.5,410z"/>
				</g>
				<g>
					<path class="st5" d="M40.5,410"/>
					<path id="XMLID_491_" class="st62" d="M40.5,410L40.5,410L40.5,410z"/>
				</g>
				<g>
					<path class="st5" d="M40.5,410"/>
					<path id="XMLID_492_" class="st61" d="M40.5,410L40.5,410L40.5,410z"/>
				</g>
				<g>
					<path class="st5" d="M40.5,410"/>
					<path id="XMLID_493_" class="st60" d="M40.5,410L40.5,410L40.5,410z"/>
				</g>
				<g>
					<path class="st5" d="M40.5,410"/>
					<path id="XMLID_494_" class="st59" d="M40.5,410L40.5,410L40.5,410z"/>
				</g>
				<g>
					<path class="st5" d="M40.5,410"/>
					<path id="XMLID_495_" class="st58" d="M40.5,410L40.5,410L40.5,410z"/>
				</g>
				<g>
					<path class="st5" d="M40.5,410"/>
					<path id="XMLID_496_" class="st57" d="M40.5,410L40.5,410L40.5,410z"/>
				</g>
				<g>
					<path class="st5" d="M40.5,410"/>
					<path id="XMLID_497_" class="st56" d="M40.5,410L40.5,410L40.5,410z"/>
				</g>
				<g>
					<path class="st5" d="M40.5,410"/>
					<path id="XMLID_498_" class="st55" d="M40.5,410L40.5,410L40.5,410z"/>
				</g>
				<g>
					<path class="st5" d="M40.5,410"/>
					<path id="XMLID_499_" class="st54" d="M40.5,410L40.5,410L40.5,410z"/>
				</g>
				<g>
					<path class="st5" d="M40.5,410"/>
					<path id="XMLID_500_" class="st53" d="M40.5,410L40.5,410L40.5,410z"/>
				</g>
				<g>
					<path class="st5" d="M40.5,410"/>
					<path id="XMLID_501_" class="st52" d="M40.5,410L40.5,410L40.5,410z"/>
				</g>
				<g>
					<path class="st5" d="M40.5,410"/>
					<path id="XMLID_502_" class="st51" d="M40.5,410L40.5,410L40.5,410z"/>
				</g>
				<g>
					<path class="st5" d="M40.5,410"/>
					<path id="XMLID_503_" class="st50" d="M40.5,410L40.5,410L40.5,410z"/>
				</g>
				<g>
					<path class="st5" d="M40.5,410"/>
					<path id="XMLID_504_" class="st49" d="M40.5,410L40.5,410L40.5,410z"/>
				</g>
				<g>
					<path class="st5" d="M40.5,410"/>
					<path id="XMLID_505_" class="st48" d="M40.5,410L40.5,410L40.5,410z"/>
				</g>
				<g>
					<path class="st5" d="M40.5,410"/>
					<path id="XMLID_506_" class="st47" d="M40.5,410L40.5,410L40.5,410z"/>
				</g>
				<g>
					<path class="st5" d="M40.5,410"/>
					<path id="XMLID_507_" class="st46" d="M40.5,410L40.5,410L40.5,410z"/>
				</g>
				<g>
					<path class="st5" d="M40.5,410"/>
					<path id="XMLID_508_" class="st45" d="M40.5,410L40.5,410L40.5,410z"/>
				</g>
				<g>
					<path class="st5" d="M40.5,410"/>
					<path id="XMLID_509_" class="st44" d="M40.5,410L40.5,410L40.5,410z"/>
				</g>
				<g>
					<path class="st5" d="M40.5,410"/>
					<path id="XMLID_510_" class="st43" d="M40.5,410L40.5,410L40.5,410z"/>
				</g>
				<g>
					<path class="st5" d="M40.5,410"/>
					<path id="XMLID_511_" class="st42" d="M40.5,410L40.5,410L40.5,410z"/>
				</g>
				<g>
					<path class="st5" d="M40.5,410"/>
					<path id="XMLID_512_" class="st41" d="M40.5,410L40.5,410L40.5,410z"/>
				</g>
				<g>
					<path class="st5" d="M40.5,410"/>
					<path id="XMLID_513_" class="st40" d="M40.5,410L40.5,410L40.5,410z"/>
				</g>
				<g>
					<path class="st5" d="M40.5,410"/>
					<path id="XMLID_514_" class="st39" d="M40.5,410L40.5,410L40.5,410z"/>
				</g>
				<g>
					<path class="st5" d="M40.5,410"/>
					<path id="XMLID_515_" class="st38" d="M40.5,410L40.5,410L40.5,410z"/>
				</g>
				<g>
					<path class="st5" d="M40.5,410"/>
					<path id="XMLID_516_" class="st37" d="M40.5,410L40.5,410L40.5,410z"/>
				</g>
				<g>
					<path class="st5" d="M40.5,410"/>
					<path id="XMLID_517_" class="st36" d="M40.5,410L40.5,410L40.5,410z"/>
				</g>
				<g>
					<path class="st5" d="M40.5,410"/>
					<path id="XMLID_518_" class="st35" d="M40.5,410L40.5,410L40.5,410z"/>
				</g>
				<g>
					<path class="st5" d="M40.5,410"/>
					<path id="XMLID_519_" class="st34" d="M40.5,410L40.5,410L40.5,410z"/>
				</g>
				<g>
					<path class="st5" d="M40.5,410"/>
					<path id="XMLID_520_" class="st33" d="M40.5,410L40.5,410L40.5,410z"/>
				</g>
				<g>
					<path class="st5" d="M40.5,410"/>
					<path id="XMLID_521_" class="st32" d="M40.5,410L40.5,410L40.5,410z"/>
				</g>
				<g>
					<path class="st5" d="M40.5,410"/>
					<path id="XMLID_522_" class="st31" d="M40.5,410L40.5,410L40.5,410z"/>
				</g>
				<g>
					<path class="st5" d="M40.5,410"/>
					<path id="XMLID_523_" class="st30" d="M40.5,410L40.5,410L40.5,410z"/>
				</g>
				<g>
					<path class="st5" d="M40.5,410"/>
					<path id="XMLID_524_" class="st29" d="M40.5,410L40.5,410L40.5,410z"/>
				</g>
				<g>
					<path class="st5" d="M40.5,410"/>
					<path id="XMLID_525_" class="st28" d="M40.5,410L40.5,410L40.5,410z"/>
				</g>
				<g>
					<path class="st5" d="M40.5,410"/>
					<path id="XMLID_526_" class="st27" d="M40.5,410L40.5,410L40.5,410z"/>
				</g>
				<g>
					<path class="st5" d="M40.5,410"/>
					<path id="XMLID_527_" class="st26" d="M40.5,410L40.5,410L40.5,410z"/>
				</g>
				<g>
					<path class="st5" d="M40.5,410"/>
					<path id="XMLID_528_" class="st25" d="M40.5,410L40.5,410L40.5,410z"/>
				</g>
				<g>
					<path class="st5" d="M40.5,410"/>
					<path id="XMLID_529_" class="st24" d="M40.5,410L40.5,410L40.5,410z"/>
				</g>
				<g>
					<path class="st5" d="M40.5,410"/>
					<path id="XMLID_530_" class="st23" d="M40.5,410L40.5,410L40.5,410z"/>
				</g>
				<g>
					<path class="st5" d="M40.5,410"/>
					<path id="XMLID_531_" class="st22" d="M40.5,410L40.5,410L40.5,410z"/>
				</g>
				<g>
					<path class="st5" d="M40.5,410"/>
					<path id="XMLID_532_" class="st21" d="M40.5,410L40.5,410L40.5,410z"/>
				</g>
				<g>
					<path class="st5" d="M40.5,410"/>
					<path id="XMLID_533_" class="st20" d="M40.5,410L40.5,410L40.5,410z"/>
				</g>
				<g>
					<path class="st5" d="M40.5,410"/>
					<path id="XMLID_534_" class="st19" d="M40.5,410L40.5,410L40.5,410z"/>
				</g>
				<g>
					<path class="st5" d="M40.5,410"/>
					<path id="XMLID_535_" class="st18" d="M40.5,410L40.5,410L40.5,410z"/>
				</g>
				<g>
					<path class="st5" d="M40.5,410"/>
					<path id="XMLID_536_" class="st17" d="M40.5,410L40.5,410L40.5,410z"/>
				</g>
				<g>
					<path class="st5" d="M40.5,410"/>
					<path id="XMLID_537_" class="st16" d="M40.5,410L40.5,410L40.5,410z"/>
				</g>
				<g>
					<path class="st5" d="M40.5,410"/>
					<path id="XMLID_538_" class="st15" d="M40.5,410L40.5,410L40.5,410z"/>
				</g>
				<g>
					<path class="st5" d="M40.5,410"/>
					<path id="XMLID_539_" class="st14" d="M40.5,410L40.5,410L40.5,410z"/>
				</g>
				<g>
					<path class="st5" d="M40.5,410"/>
					<path id="XMLID_540_" class="st13" d="M40.5,410L40.5,410L40.5,410z"/>
				</g>
				<g>
					<path class="st5" d="M40.5,410"/>
					<path id="XMLID_541_" class="st12" d="M40.5,410L40.5,410L40.5,410z"/>
				</g>
				<g>
					<path class="st5" d="M40.5,410"/>
					<path id="XMLID_542_" class="st11" d="M40.5,410L40.5,410L40.5,410z"/>
				</g>
				<g>
					<path class="st5" d="M40.5,410"/>
					<path id="XMLID_543_" class="st10" d="M40.5,410L40.5,410L40.5,410z"/>
				</g>
				<g>
					<path class="st5" d="M40.5,410"/>
					<path id="XMLID_544_" class="st9" d="M40.5,410L40.5,410L40.5,410z"/>
				</g>
				<g>
					<path class="st5" d="M40.5,410"/>
					<path id="XMLID_545_" class="st8" d="M40.5,410L40.5,410L40.5,410z"/>
				</g>
				<g>
					<path class="st5" d="M40.5,410"/>
					<path id="XMLID_546_" class="st7" d="M40.5,410L40.5,410L40.5,410z"/>
				</g>
				<g>
					<path class="st5" d="M40.5,410"/>
					<path id="XMLID_547_" class="st6" d="M40.5,410L40.5,410L40.5,410z"/>
				</g>
				<g>
					<path class="st5" d="M40.5,410"/>
					<path id="XMLID_548_" class="st6" d="M40.5,410L40.5,410L40.5,410z"/>
				</g>
			</g>
		</g>
		<g id="XMLID_3_">
			<g id="XMLID_113_">
				<g>
					<path class="st5" d="M40.5,410"/>
					<path id="XMLID_115_" class="st6" d="M40.5,410L40.5,410L40.5,410z"/>
				</g>
				<g>
					<path class="st5" d="M40.5,410"/>
					<path id="XMLID_116_" class="st6" d="M40.5,410L40.5,410L40.5,410z"/>
				</g>
				<g>
					<path class="st5" d="M40.5,410"/>
					<path id="XMLID_117_" class="st7" d="M40.5,410L40.5,410L40.5,410z"/>
				</g>
				<g>
					<path class="st5" d="M40.5,410"/>
					<path id="XMLID_118_" class="st8" d="M40.5,410L40.5,410L40.5,410z"/>
				</g>
				<g>
					<path class="st5" d="M40.5,410"/>
					<path id="XMLID_119_" class="st9" d="M40.5,410L40.5,410L40.5,410z"/>
				</g>
				<g>
					<path class="st5" d="M40.5,410"/>
					<path id="XMLID_120_" class="st10" d="M40.5,410L40.5,410L40.5,410z"/>
				</g>
				<g>
					<path class="st5" d="M40.5,410"/>
					<path id="XMLID_121_" class="st11" d="M40.5,410L40.5,410L40.5,410z"/>
				</g>
				<g>
					<path class="st5" d="M40.5,410"/>
					<path id="XMLID_122_" class="st12" d="M40.5,410L40.5,410L40.5,410z"/>
				</g>
				<g>
					<path class="st5" d="M40.5,410"/>
					<path id="XMLID_123_" class="st13" d="M40.5,410L40.5,410L40.5,410z"/>
				</g>
				<g>
					<path class="st5" d="M40.5,410"/>
					<path id="XMLID_124_" class="st14" d="M40.5,410L40.5,410L40.5,410z"/>
				</g>
				<g>
					<path class="st5" d="M40.5,410"/>
					<path id="XMLID_125_" class="st15" d="M40.5,410L40.5,410L40.5,410z"/>
				</g>
				<g>
					<path class="st5" d="M40.5,410"/>
					<path id="XMLID_126_" class="st16" d="M40.5,410L40.5,410L40.5,410z"/>
				</g>
				<g>
					<path class="st5" d="M40.5,410"/>
					<path id="XMLID_127_" class="st17" d="M40.5,410L40.5,410L40.5,410z"/>
				</g>
				<g>
					<path class="st5" d="M40.5,410"/>
					<path id="XMLID_128_" class="st18" d="M40.5,410L40.5,410L40.5,410z"/>
				</g>
				<g>
					<path class="st5" d="M40.5,410"/>
					<path id="XMLID_129_" class="st19" d="M40.5,410L40.5,410L40.5,410z"/>
				</g>
				<g>
					<path class="st5" d="M40.5,410"/>
					<path id="XMLID_130_" class="st20" d="M40.5,410L40.5,410L40.5,410z"/>
				</g>
				<g>
					<path class="st5" d="M40.5,410"/>
					<path id="XMLID_131_" class="st21" d="M40.5,410L40.5,410L40.5,410z"/>
				</g>
				<g>
					<path class="st5" d="M40.5,410"/>
					<path id="XMLID_132_" class="st22" d="M40.5,410L40.5,410L40.5,410z"/>
				</g>
				<g>
					<path class="st5" d="M40.5,410"/>
					<path id="XMLID_133_" class="st23" d="M40.5,410L40.5,410L40.5,410z"/>
				</g>
				<g>
					<path class="st5" d="M40.5,410"/>
					<path id="XMLID_134_" class="st24" d="M40.5,410L40.5,410L40.5,410z"/>
				</g>
				<g>
					<path class="st5" d="M40.5,410"/>
					<path id="XMLID_135_" class="st25" d="M40.5,410L40.5,410L40.5,410z"/>
				</g>
				<g>
					<path class="st5" d="M40.5,410"/>
					<path id="XMLID_136_" class="st26" d="M40.5,410L40.5,410L40.5,410z"/>
				</g>
				<g>
					<path class="st5" d="M40.5,410"/>
					<path id="XMLID_137_" class="st27" d="M40.5,410L40.5,410L40.5,410z"/>
				</g>
				<g>
					<path class="st5" d="M40.5,410"/>
					<path id="XMLID_138_" class="st28" d="M40.5,410L40.5,410L40.5,410z"/>
				</g>
				<g>
					<path class="st5" d="M40.5,410"/>
					<path id="XMLID_139_" class="st29" d="M40.5,410L40.5,410L40.5,410z"/>
				</g>
				<g>
					<path class="st5" d="M40.5,410"/>
					<path id="XMLID_140_" class="st30" d="M40.5,410L40.5,410L40.5,410z"/>
				</g>
				<g>
					<path class="st5" d="M40.5,410"/>
					<path id="XMLID_141_" class="st31" d="M40.5,410L40.5,410L40.5,410z"/>
				</g>
				<g>
					<path class="st5" d="M40.5,410"/>
					<path id="XMLID_142_" class="st32" d="M40.5,410L40.5,410L40.5,410z"/>
				</g>
				<g>
					<path class="st5" d="M40.5,410"/>
					<path id="XMLID_143_" class="st33" d="M40.5,410L40.5,410L40.5,410z"/>
				</g>
				<g>
					<path class="st5" d="M40.5,410"/>
					<path id="XMLID_144_" class="st34" d="M40.5,410L40.5,410L40.5,410z"/>
				</g>
				<g>
					<path class="st5" d="M40.5,410"/>
					<path id="XMLID_145_" class="st35" d="M40.5,410L40.5,410L40.5,410z"/>
				</g>
				<g>
					<path class="st5" d="M40.5,410"/>
					<path id="XMLID_146_" class="st36" d="M40.5,410L40.5,410L40.5,410z"/>
				</g>
				<g>
					<path class="st5" d="M40.5,410"/>
					<path id="XMLID_147_" class="st37" d="M40.5,410L40.5,410L40.5,410z"/>
				</g>
				<g>
					<path class="st5" d="M40.5,410"/>
					<path id="XMLID_148_" class="st38" d="M40.5,410L40.5,410L40.5,410z"/>
				</g>
				<g>
					<path class="st5" d="M40.5,410"/>
					<path id="XMLID_149_" class="st39" d="M40.5,410L40.5,410L40.5,410z"/>
				</g>
				<g>
					<path class="st5" d="M40.5,410"/>
					<path id="XMLID_150_" class="st40" d="M40.5,410L40.5,410L40.5,410z"/>
				</g>
				<g>
					<path class="st5" d="M40.5,410"/>
					<path id="XMLID_151_" class="st41" d="M40.5,410L40.5,410L40.5,410z"/>
				</g>
				<g>
					<path class="st5" d="M40.5,410"/>
					<path id="XMLID_152_" class="st42" d="M40.5,410L40.5,410L40.5,410z"/>
				</g>
				<g>
					<path class="st5" d="M40.5,410"/>
					<path id="XMLID_153_" class="st43" d="M40.5,410L40.5,410L40.5,410z"/>
				</g>
				<g>
					<path class="st5" d="M40.5,410"/>
					<path id="XMLID_154_" class="st44" d="M40.5,410L40.5,410L40.5,410z"/>
				</g>
				<g>
					<path class="st5" d="M40.5,410"/>
					<path id="XMLID_155_" class="st45" d="M40.5,410L40.5,410L40.5,410z"/>
				</g>
				<g>
					<path class="st5" d="M40.5,410"/>
					<path id="XMLID_156_" class="st46" d="M40.5,410L40.5,410L40.5,410z"/>
				</g>
				<g>
					<path class="st5" d="M40.5,410"/>
					<path id="XMLID_157_" class="st47" d="M40.5,410L40.5,410L40.5,410z"/>
				</g>
				<g>
					<path class="st5" d="M40.5,410"/>
					<path id="XMLID_158_" class="st48" d="M40.5,410L40.5,410L40.5,410z"/>
				</g>
				<g>
					<path class="st5" d="M40.5,410"/>
					<path id="XMLID_159_" class="st49" d="M40.5,410L40.5,410L40.5,410z"/>
				</g>
				<g>
					<path class="st5" d="M40.5,410"/>
					<path id="XMLID_160_" class="st50" d="M40.5,410L40.5,410L40.5,410z"/>
				</g>
				<g>
					<path class="st5" d="M40.5,410"/>
					<path id="XMLID_161_" class="st51" d="M40.5,410L40.5,410L40.5,410z"/>
				</g>
				<g>
					<path class="st5" d="M40.5,410"/>
					<path id="XMLID_162_" class="st52" d="M40.5,410L40.5,410L40.5,410z"/>
				</g>
				<g>
					<path class="st5" d="M40.5,410"/>
					<path id="XMLID_163_" class="st53" d="M40.5,410L40.5,410L40.5,410z"/>
				</g>
				<g>
					<path class="st5" d="M40.5,410"/>
					<path id="XMLID_164_" class="st54" d="M40.5,410L40.5,410L40.5,410z"/>
				</g>
				<g>
					<path class="st5" d="M40.5,410"/>
					<path id="XMLID_165_" class="st55" d="M40.5,410L40.5,410L40.5,410z"/>
				</g>
				<g>
					<path class="st5" d="M40.5,410"/>
					<path id="XMLID_166_" class="st56" d="M40.5,410L40.5,410L40.5,410z"/>
				</g>
				<g>
					<path class="st5" d="M40.5,410"/>
					<path id="XMLID_167_" class="st57" d="M40.5,410L40.5,410L40.5,410z"/>
				</g>
				<g>
					<path class="st5" d="M40.5,410"/>
					<path id="XMLID_168_" class="st58" d="M40.5,410L40.5,410L40.5,410z"/>
				</g>
				<g>
					<path class="st5" d="M40.5,410"/>
					<path id="XMLID_169_" class="st59" d="M40.5,410L40.5,410L40.5,410z"/>
				</g>
				<g>
					<path class="st5" d="M40.5,410"/>
					<path id="XMLID_170_" class="st60" d="M40.5,410L40.5,410L40.5,410z"/>
				</g>
				<g>
					<path class="st5" d="M40.5,410"/>
					<path id="XMLID_171_" class="st61" d="M40.5,410L40.5,410L40.5,410z"/>
				</g>
				<g>
					<path class="st5" d="M40.5,410"/>
					<path id="XMLID_172_" class="st62" d="M40.5,410L40.5,410L40.5,410z"/>
				</g>
				<g>
					<path class="st5" d="M40.5,410"/>
					<path id="XMLID_173_" class="st63" d="M40.5,410L40.5,410L40.5,410z"/>
				</g>
				<g>
					<path class="st5" d="M40.5,410"/>
					<path id="XMLID_174_" class="st64" d="M40.5,410L40.5,410L40.5,410z"/>
				</g>
				<g>
					<path class="st5" d="M40.5,410"/>
					<path id="XMLID_175_" class="st65" d="M40.5,410L40.5,410L40.5,410z"/>
				</g>
				<g>
					<path class="st5" d="M40.5,410"/>
					<path id="XMLID_176_" class="st66" d="M40.5,410L40.5,410L40.5,410z"/>
				</g>
				<g>
					<path class="st5" d="M40.5,410"/>
					<path id="XMLID_177_" class="st67" d="M40.5,410L40.5,410L40.5,410z"/>
				</g>
				<g>
					<path class="st5" d="M40.5,410"/>
					<path id="XMLID_178_" class="st68" d="M40.5,410L40.5,410L40.5,410z"/>
				</g>
				<g>
					<path class="st5" d="M40.5,410"/>
					<path id="XMLID_179_" class="st69" d="M40.5,410L40.5,410L40.5,410z"/>
				</g>
				<g>
					<path class="st5" d="M40.5,410"/>
					<path id="XMLID_180_" class="st70" d="M40.5,410L40.5,410L40.5,410z"/>
				</g>
				<g>
					<path class="st5" d="M40.5,410"/>
					<path id="XMLID_181_" class="st71" d="M40.5,410L40.5,410L40.5,410z"/>
				</g>
				<g>
					<path class="st5" d="M40.5,410"/>
					<path id="XMLID_182_" class="st72" d="M40.5,410L40.5,410L40.5,410z"/>
				</g>
				<g>
					<path class="st5" d="M40.5,410"/>
					<path id="XMLID_183_" class="st73" d="M40.5,410L40.5,410L40.5,410z"/>
				</g>
				<g>
					<path class="st5" d="M40.5,410"/>
					<path id="XMLID_184_" class="st74" d="M40.5,410L40.5,410L40.5,410z"/>
				</g>
				<g>
					<path class="st5" d="M40.5,410"/>
					<path id="XMLID_185_" class="st75" d="M40.5,410L40.5,410L40.5,410z"/>
				</g>
				<g>
					<path class="st5" d="M40.5,410"/>
					<path id="XMLID_186_" class="st76" d="M40.5,410L40.5,410L40.5,410z"/>
				</g>
				<g>
					<path class="st5" d="M40.5,410"/>
					<path id="XMLID_187_" class="st77" d="M40.5,410L40.5,410L40.5,410z"/>
				</g>
				<g>
					<path class="st5" d="M40.5,410"/>
					<path id="XMLID_188_" class="st78" d="M40.5,410L40.5,410L40.5,410z"/>
				</g>
				<g>
					<path class="st5" d="M40.5,410"/>
					<path id="XMLID_189_" class="st79" d="M40.5,410L40.5,410L40.5,410z"/>
				</g>
				<g>
					<path class="st5" d="M40.5,410"/>
					<path id="XMLID_190_" class="st80" d="M40.5,410L40.5,410L40.5,410z"/>
				</g>
				<g>
					<path class="st5" d="M40.5,410"/>
					<path id="XMLID_191_" class="st81" d="M40.5,410L40.5,410L40.5,410z"/>
				</g>
				<g>
					<path class="st5" d="M40.5,410"/>
					<path id="XMLID_192_" class="st82" d="M40.5,410L40.5,410L40.5,410z"/>
				</g>
				<g>
					<path class="st5" d="M40.5,410"/>
					<path id="XMLID_193_" class="st83" d="M40.5,410L40.5,410L40.5,410z"/>
				</g>
				<g>
					<path class="st5" d="M40.5,410"/>
					<path id="XMLID_194_" class="st84" d="M40.5,410L40.5,410L40.5,410z"/>
				</g>
				<g>
					<path class="st5" d="M40.5,410"/>
					<path id="XMLID_195_" class="st85" d="M40.5,410L40.5,410L40.5,410z"/>
				</g>
				<g>
					<path class="st5" d="M40.5,410"/>
					<path id="XMLID_196_" class="st86" d="M40.5,410L40.5,410L40.5,410z"/>
				</g>
				<g>
					<path class="st5" d="M40.5,410"/>
					<path id="XMLID_197_" class="st87" d="M40.5,410L40.5,410L40.5,410z"/>
				</g>
				<g>
					<path class="st5" d="M40.5,410"/>
					<path id="XMLID_198_" class="st88" d="M40.5,410L40.5,410L40.5,410z"/>
				</g>
				<g>
					<path class="st5" d="M40.5,410"/>
					<path id="XMLID_199_" class="st89" d="M40.5,410L40.5,410L40.5,410z"/>
				</g>
				<g>
					<path class="st5" d="M40.5,410"/>
					<path id="XMLID_200_" class="st90" d="M40.5,410L40.5,410L40.5,410z"/>
				</g>
				<g>
					<path class="st5" d="M40.5,410"/>
					<path id="XMLID_201_" class="st91" d="M40.5,410L40.5,410L40.5,410z"/>
				</g>
				<g>
					<path class="st5" d="M40.5,410"/>
					<path id="XMLID_202_" class="st92" d="M40.5,410L40.5,410L40.5,410z"/>
				</g>
				<g>
					<path class="st5" d="M40.5,410"/>
					<path id="XMLID_203_" class="st93" d="M40.5,410L40.5,410L40.5,410z"/>
				</g>
				<g>
					<path class="st5" d="M40.5,410"/>
					<path id="XMLID_204_" class="st94" d="M40.5,410L40.5,410L40.5,410z"/>
				</g>
				<g>
					<path class="st5" d="M40.5,410"/>
					<path id="XMLID_205_" class="st95" d="M40.5,410L40.5,410L40.5,410z"/>
				</g>
				<g>
					<path class="st5" d="M40.5,410"/>
					<path id="XMLID_206_" class="st96" d="M40.5,410L40.5,410L40.5,410z"/>
				</g>
				<g>
					<path class="st5" d="M40.5,410"/>
					<path id="XMLID_207_" class="st97" d="M40.5,410L40.5,410L40.5,410z"/>
				</g>
				<g>
					<path class="st5" d="M40.5,410"/>
					<path id="XMLID_208_" class="st98" d="M40.5,410L40.5,410L40.5,410z"/>
				</g>
				<g>
					<path class="st5" d="M40.5,410"/>
					<path id="XMLID_209_" class="st99" d="M40.5,410L40.5,410L40.5,410z"/>
				</g>
				<g>
					<path class="st5" d="M40.5,410"/>
					<path id="XMLID_210_" class="st100" d="M40.5,410L40.5,410L40.5,410z"/>
				</g>
				<g>
					<path class="st5" d="M40.5,410"/>
					<path id="XMLID_211_" class="st101" d="M40.5,410L40.5,410L40.5,410z"/>
				</g>
				<g>
					<path class="st5" d="M40.5,410"/>
					<path id="XMLID_212_" class="st102" d="M40.5,410L40.5,410L40.5,410z"/>
				</g>
				<g>
					<path class="st5" d="M40.5,410"/>
					<path id="XMLID_213_" class="st103" d="M40.5,410L40.5,410L40.5,410z"/>
				</g>
				<g>
					<path class="st5" d="M40.5,410"/>
					<path id="XMLID_214_" class="st104" d="M40.5,410L40.5,410L40.5,410z"/>
				</g>
				<g>
					<path class="st5" d="M40.5,410"/>
					<path id="XMLID_215_" class="st105" d="M40.5,410L40.5,410L40.5,410z"/>
				</g>
				<g>
					<path class="st5" d="M40.5,410"/>
					<path id="XMLID_216_" class="st106" d="M40.5,410L40.5,410L40.5,410z"/>
				</g>
				<g>
					<path class="st5" d="M40.5,410"/>
					<path id="XMLID_217_" class="st107" d="M40.5,410L40.5,410L40.5,410z"/>
				</g>
				<g>
					<path class="st5" d="M40.5,410"/>
					<path id="XMLID_218_" class="st108" d="M40.5,410L40.5,410L40.5,410z"/>
				</g>
				<g>
					<path class="st5" d="M40.5,410"/>
					<path id="XMLID_219_" class="st109" d="M40.5,410L40.5,410L40.5,410z"/>
				</g>
				<g>
					<path class="st5" d="M40.5,410"/>
					<path id="XMLID_220_" class="st110" d="M40.5,410L40.5,410L40.5,410z"/>
				</g>
				<g>
					<path class="st5" d="M40.5,410"/>
					<path id="XMLID_221_" class="st111" d="M40.5,410L40.5,410L40.5,410z"/>
				</g>
				<g>
					<path class="st5" d="M40.5,410"/>
					<path id="XMLID_222_" class="st112" d="M40.5,410L40.5,410L40.5,410z"/>
				</g>
				<g>
					<path class="st5" d="M40.5,410"/>
					<path id="XMLID_223_" class="st112" d="M40.5,410L40.5,410L40.5,410z"/>
				</g>
				<g>
					<path class="st5" d="M40.5,410"/>
					<path id="XMLID_224_" class="st111" d="M40.5,410L40.5,410L40.5,410z"/>
				</g>
				<g>
					<path class="st5" d="M40.5,410"/>
					<path id="XMLID_225_" class="st110" d="M40.5,410L40.5,410L40.5,410z"/>
				</g>
				<g>
					<path class="st5" d="M40.5,410"/>
					<path id="XMLID_226_" class="st109" d="M40.5,410L40.5,410L40.5,410z"/>
				</g>
				<g>
					<path class="st5" d="M40.5,410"/>
					<path id="XMLID_227_" class="st108" d="M40.5,410L40.5,410L40.5,410z"/>
				</g>
				<g>
					<path class="st5" d="M40.5,410"/>
					<path id="XMLID_228_" class="st107" d="M40.5,410L40.5,410L40.5,410z"/>
				</g>
				<g>
					<path class="st5" d="M40.5,410"/>
					<path id="XMLID_229_" class="st106" d="M40.5,410L40.5,410L40.5,410z"/>
				</g>
				<g>
					<path class="st5" d="M40.5,410"/>
					<path id="XMLID_230_" class="st105" d="M40.5,410L40.5,410L40.5,410z"/>
				</g>
				<g>
					<path class="st5" d="M40.5,410"/>
					<path id="XMLID_231_" class="st104" d="M40.5,410L40.5,410L40.5,410z"/>
				</g>
				<g>
					<path class="st5" d="M40.5,410"/>
					<path id="XMLID_232_" class="st103" d="M40.5,410L40.5,410L40.5,410z"/>
				</g>
				<g>
					<path class="st5" d="M40.5,410"/>
					<path id="XMLID_233_" class="st102" d="M40.5,410L40.5,410L40.5,410z"/>
				</g>
				<g>
					<path class="st5" d="M40.5,410"/>
					<path id="XMLID_234_" class="st101" d="M40.5,410L40.5,410L40.5,410z"/>
				</g>
				<g>
					<path class="st5" d="M40.5,410"/>
					<path id="XMLID_235_" class="st100" d="M40.5,410L40.5,410L40.5,410z"/>
				</g>
				<g>
					<path class="st5" d="M40.5,410"/>
					<path id="XMLID_236_" class="st99" d="M40.5,410L40.5,410L40.5,410z"/>
				</g>
				<g>
					<path class="st5" d="M40.5,410"/>
					<path id="XMLID_237_" class="st98" d="M40.5,410L40.5,410L40.5,410z"/>
				</g>
				<g>
					<path class="st5" d="M40.5,410"/>
					<path id="XMLID_238_" class="st97" d="M40.5,410L40.5,410L40.5,410z"/>
				</g>
				<g>
					<path class="st5" d="M40.5,410"/>
					<path id="XMLID_239_" class="st96" d="M40.5,410L40.5,410L40.5,410z"/>
				</g>
				<g>
					<path class="st5" d="M40.5,410"/>
					<path id="XMLID_240_" class="st95" d="M40.5,410L40.5,410L40.5,410z"/>
				</g>
				<g>
					<path class="st5" d="M40.5,410"/>
					<path id="XMLID_241_" class="st94" d="M40.5,410L40.5,410L40.5,410z"/>
				</g>
				<g>
					<path class="st5" d="M40.5,410"/>
					<path id="XMLID_242_" class="st93" d="M40.5,410L40.5,410L40.5,410z"/>
				</g>
				<g>
					<path class="st5" d="M40.5,410"/>
					<path id="XMLID_243_" class="st92" d="M40.5,410L40.5,410L40.5,410z"/>
				</g>
				<g>
					<path class="st5" d="M40.5,410"/>
					<path id="XMLID_244_" class="st91" d="M40.5,410L40.5,410L40.5,410z"/>
				</g>
				<g>
					<path class="st5" d="M40.5,410"/>
					<path id="XMLID_245_" class="st90" d="M40.5,410L40.5,410L40.5,410z"/>
				</g>
				<g>
					<path class="st5" d="M40.5,410"/>
					<path id="XMLID_246_" class="st89" d="M40.5,410L40.5,410L40.5,410z"/>
				</g>
				<g>
					<path class="st5" d="M40.5,410"/>
					<path id="XMLID_247_" class="st88" d="M40.5,410L40.5,410L40.5,410z"/>
				</g>
				<g>
					<path class="st5" d="M40.5,410"/>
					<path id="XMLID_248_" class="st87" d="M40.5,410L40.5,410L40.5,410z"/>
				</g>
				<g>
					<path class="st5" d="M40.5,410"/>
					<path id="XMLID_249_" class="st86" d="M40.5,410L40.5,410L40.5,410z"/>
				</g>
				<g>
					<path class="st5" d="M40.5,410"/>
					<path id="XMLID_250_" class="st85" d="M40.5,410L40.5,410L40.5,410z"/>
				</g>
				<g>
					<path class="st5" d="M40.5,410"/>
					<path id="XMLID_251_" class="st84" d="M40.5,410L40.5,410L40.5,410z"/>
				</g>
				<g>
					<path class="st5" d="M40.5,410"/>
					<path id="XMLID_252_" class="st83" d="M40.5,410L40.5,410L40.5,410z"/>
				</g>
				<g>
					<path class="st5" d="M40.5,410"/>
					<path id="XMLID_253_" class="st82" d="M40.5,410L40.5,410L40.5,410z"/>
				</g>
				<g>
					<path class="st5" d="M40.5,410"/>
					<path id="XMLID_254_" class="st81" d="M40.5,410L40.5,410L40.5,410z"/>
				</g>
				<g>
					<path class="st5" d="M40.5,410"/>
					<path id="XMLID_255_" class="st80" d="M40.5,410L40.5,410L40.5,410z"/>
				</g>
				<g>
					<path class="st5" d="M40.5,410"/>
					<path id="XMLID_256_" class="st79" d="M40.5,410L40.5,410L40.5,410z"/>
				</g>
				<g>
					<path class="st5" d="M40.5,410"/>
					<path id="XMLID_257_" class="st78" d="M40.5,410L40.5,410L40.5,410z"/>
				</g>
				<g>
					<path class="st5" d="M40.5,410"/>
					<path id="XMLID_258_" class="st77" d="M40.5,410L40.5,410L40.5,410z"/>
				</g>
				<g>
					<path class="st5" d="M40.5,410"/>
					<path id="XMLID_259_" class="st76" d="M40.5,410L40.5,410L40.5,410z"/>
				</g>
				<g>
					<path class="st5" d="M40.5,410"/>
					<path id="XMLID_260_" class="st75" d="M40.5,410L40.5,410L40.5,410z"/>
				</g>
				<g>
					<path class="st5" d="M40.5,410"/>
					<path id="XMLID_261_" class="st74" d="M40.5,410L40.5,410L40.5,410z"/>
				</g>
				<g>
					<path class="st5" d="M40.5,410"/>
					<path id="XMLID_262_" class="st73" d="M40.5,410L40.5,410L40.5,410z"/>
				</g>
				<g>
					<path class="st5" d="M40.5,410"/>
					<path id="XMLID_263_" class="st72" d="M40.5,410L40.5,410L40.5,410z"/>
				</g>
				<g>
					<path class="st5" d="M40.5,410"/>
					<path id="XMLID_264_" class="st71" d="M40.5,410L40.5,410L40.5,410z"/>
				</g>
				<g>
					<path class="st5" d="M40.5,410"/>
					<path id="XMLID_265_" class="st70" d="M40.5,410L40.5,410L40.5,410z"/>
				</g>
				<g>
					<path class="st5" d="M40.5,410"/>
					<path id="XMLID_266_" class="st69" d="M40.5,410L40.5,410L40.5,410z"/>
				</g>
				<g>
					<path class="st5" d="M40.5,410"/>
					<path id="XMLID_267_" class="st68" d="M40.5,410L40.5,410L40.5,410z"/>
				</g>
				<g>
					<path class="st5" d="M40.5,410"/>
					<path id="XMLID_268_" class="st67" d="M40.5,410L40.5,410L40.5,410z"/>
				</g>
				<g>
					<path class="st5" d="M40.5,410"/>
					<path id="XMLID_269_" class="st66" d="M40.5,410L40.5,410L40.5,410z"/>
				</g>
				<g>
					<path class="st5" d="M40.5,410"/>
					<path id="XMLID_270_" class="st65" d="M40.5,410L40.5,410L40.5,410z"/>
				</g>
				<g>
					<path class="st5" d="M40.5,410"/>
					<path id="XMLID_271_" class="st64" d="M40.5,410L40.5,410L40.5,410z"/>
				</g>
				<g>
					<path class="st5" d="M40.5,410"/>
					<path id="XMLID_272_" class="st63" d="M40.5,410L40.5,410L40.5,410z"/>
				</g>
				<g>
					<path class="st5" d="M40.5,410"/>
					<path id="XMLID_273_" class="st62" d="M40.5,410L40.5,410L40.5,410z"/>
				</g>
				<g>
					<path class="st5" d="M40.5,410"/>
					<path id="XMLID_274_" class="st61" d="M40.5,410L40.5,410L40.5,410z"/>
				</g>
				<g>
					<path class="st5" d="M40.5,410"/>
					<path id="XMLID_275_" class="st60" d="M40.5,410L40.5,410L40.5,410z"/>
				</g>
				<g>
					<path class="st5" d="M40.5,410"/>
					<path id="XMLID_276_" class="st59" d="M40.5,410L40.5,410L40.5,410z"/>
				</g>
				<g>
					<path class="st5" d="M40.5,410"/>
					<path id="XMLID_277_" class="st58" d="M40.5,410L40.5,410L40.5,410z"/>
				</g>
				<g>
					<path class="st5" d="M40.5,410"/>
					<path id="XMLID_278_" class="st57" d="M40.5,410L40.5,410L40.5,410z"/>
				</g>
				<g>
					<path class="st5" d="M40.5,410"/>
					<path id="XMLID_279_" class="st56" d="M40.5,410L40.5,410L40.5,410z"/>
				</g>
				<g>
					<path class="st5" d="M40.5,410"/>
					<path id="XMLID_280_" class="st55" d="M40.5,410L40.5,410L40.5,410z"/>
				</g>
				<g>
					<path class="st5" d="M40.5,410"/>
					<path id="XMLID_281_" class="st54" d="M40.5,410L40.5,410L40.5,410z"/>
				</g>
				<g>
					<path class="st5" d="M40.5,410"/>
					<path id="XMLID_282_" class="st53" d="M40.5,410L40.5,410L40.5,410z"/>
				</g>
				<g>
					<path class="st5" d="M40.5,410"/>
					<path id="XMLID_283_" class="st52" d="M40.5,410L40.5,410L40.5,410z"/>
				</g>
				<g>
					<path class="st5" d="M40.5,410"/>
					<path id="XMLID_284_" class="st51" d="M40.5,410L40.5,410L40.5,410z"/>
				</g>
				<g>
					<path class="st5" d="M40.5,410"/>
					<path id="XMLID_285_" class="st50" d="M40.5,410L40.5,410L40.5,410z"/>
				</g>
				<g>
					<path class="st5" d="M40.5,410"/>
					<path id="XMLID_286_" class="st49" d="M40.5,410L40.5,410L40.5,410z"/>
				</g>
				<g>
					<path class="st5" d="M40.5,410"/>
					<path id="XMLID_287_" class="st48" d="M40.5,410L40.5,410L40.5,410z"/>
				</g>
				<g>
					<path class="st5" d="M40.5,410"/>
					<path id="XMLID_288_" class="st47" d="M40.5,410L40.5,410L40.5,410z"/>
				</g>
				<g>
					<path class="st5" d="M40.5,410"/>
					<path id="XMLID_289_" class="st46" d="M40.5,410L40.5,410L40.5,410z"/>
				</g>
				<g>
					<path class="st5" d="M40.5,410"/>
					<path id="XMLID_290_" class="st45" d="M40.5,410L40.5,410L40.5,410z"/>
				</g>
				<g>
					<path class="st5" d="M40.5,410"/>
					<path id="XMLID_291_" class="st44" d="M40.5,410L40.5,410L40.5,410z"/>
				</g>
				<g>
					<path class="st5" d="M40.5,410"/>
					<path id="XMLID_292_" class="st43" d="M40.5,410L40.5,410L40.5,410z"/>
				</g>
				<g>
					<path class="st5" d="M40.5,410"/>
					<path id="XMLID_293_" class="st42" d="M40.5,410L40.5,410L40.5,410z"/>
				</g>
				<g>
					<path class="st5" d="M40.5,410"/>
					<path id="XMLID_294_" class="st41" d="M40.5,410L40.5,410L40.5,410z"/>
				</g>
				<g>
					<path class="st5" d="M40.5,410"/>
					<path id="XMLID_295_" class="st40" d="M40.5,410L40.5,410L40.5,410z"/>
				</g>
				<g>
					<path class="st5" d="M40.5,410"/>
					<path id="XMLID_296_" class="st39" d="M40.5,410L40.5,410L40.5,410z"/>
				</g>
				<g>
					<path class="st5" d="M40.5,410"/>
					<path id="XMLID_297_" class="st38" d="M40.5,410L40.5,410L40.5,410z"/>
				</g>
				<g>
					<path class="st5" d="M40.5,410"/>
					<path id="XMLID_298_" class="st37" d="M40.5,410L40.5,410L40.5,410z"/>
				</g>
				<g>
					<path class="st5" d="M40.5,410"/>
					<path id="XMLID_299_" class="st36" d="M40.5,410L40.5,410L40.5,410z"/>
				</g>
				<g>
					<path class="st5" d="M40.5,410"/>
					<path id="XMLID_300_" class="st35" d="M40.5,410L40.5,410L40.5,410z"/>
				</g>
				<g>
					<path class="st5" d="M40.5,410"/>
					<path id="XMLID_301_" class="st34" d="M40.5,410L40.5,410L40.5,410z"/>
				</g>
				<g>
					<path class="st5" d="M40.5,410"/>
					<path id="XMLID_302_" class="st33" d="M40.5,410L40.5,410L40.5,410z"/>
				</g>
				<g>
					<path class="st5" d="M40.5,410"/>
					<path id="XMLID_303_" class="st32" d="M40.5,410L40.5,410L40.5,410z"/>
				</g>
				<g>
					<path class="st5" d="M40.5,410"/>
					<path id="XMLID_304_" class="st31" d="M40.5,410L40.5,410L40.5,410z"/>
				</g>
				<g>
					<path class="st5" d="M40.5,410"/>
					<path id="XMLID_305_" class="st30" d="M40.5,410L40.5,410L40.5,410z"/>
				</g>
				<g>
					<path class="st5" d="M40.5,410"/>
					<path id="XMLID_306_" class="st29" d="M40.5,410L40.5,410L40.5,410z"/>
				</g>
				<g>
					<path class="st5" d="M40.5,410"/>
					<path id="XMLID_307_" class="st28" d="M40.5,410L40.5,410L40.5,410z"/>
				</g>
				<g>
					<path class="st5" d="M40.5,410"/>
					<path id="XMLID_308_" class="st27" d="M40.5,410L40.5,410L40.5,410z"/>
				</g>
				<g>
					<path class="st5" d="M40.5,410"/>
					<path id="XMLID_309_" class="st26" d="M40.5,410L40.5,410L40.5,410z"/>
				</g>
				<g>
					<path class="st5" d="M40.5,410"/>
					<path id="XMLID_310_" class="st25" d="M40.5,410L40.5,410L40.5,410z"/>
				</g>
				<g>
					<path class="st5" d="M40.5,410"/>
					<path id="XMLID_311_" class="st24" d="M40.5,410L40.5,410L40.5,410z"/>
				</g>
				<g>
					<path class="st5" d="M40.5,410"/>
					<path id="XMLID_312_" class="st23" d="M40.5,410L40.5,410L40.5,410z"/>
				</g>
				<g>
					<path class="st5" d="M40.5,410"/>
					<path id="XMLID_313_" class="st22" d="M40.5,410L40.5,410L40.5,410z"/>
				</g>
				<g>
					<path class="st5" d="M40.5,410"/>
					<path id="XMLID_314_" class="st21" d="M40.5,410L40.5,410L40.5,410z"/>
				</g>
				<g>
					<path class="st5" d="M40.5,410"/>
					<path id="XMLID_315_" class="st20" d="M40.5,410L40.5,410L40.5,410z"/>
				</g>
				<g>
					<path class="st5" d="M40.5,410"/>
					<path id="XMLID_316_" class="st19" d="M40.5,410L40.5,410L40.5,410z"/>
				</g>
				<g>
					<path class="st5" d="M40.5,410"/>
					<path id="XMLID_317_" class="st18" d="M40.5,410L40.5,410L40.5,410z"/>
				</g>
				<g>
					<path class="st5" d="M40.5,410"/>
					<path id="XMLID_318_" class="st17" d="M40.5,410L40.5,410L40.5,410z"/>
				</g>
				<g>
					<path class="st5" d="M40.5,410"/>
					<path id="XMLID_319_" class="st16" d="M40.5,410L40.5,410L40.5,410z"/>
				</g>
				<g>
					<path class="st5" d="M40.5,410"/>
					<path id="XMLID_320_" class="st15" d="M40.5,410L40.5,410L40.5,410z"/>
				</g>
				<g>
					<path class="st5" d="M40.5,410"/>
					<path id="XMLID_321_" class="st14" d="M40.5,410L40.5,410L40.5,410z"/>
				</g>
				<g>
					<path class="st5" d="M40.5,410"/>
					<path id="XMLID_322_" class="st13" d="M40.5,410L40.5,410L40.5,410z"/>
				</g>
				<g>
					<path class="st5" d="M40.5,410"/>
					<path id="XMLID_323_" class="st12" d="M40.5,410L40.5,410L40.5,410z"/>
				</g>
				<g>
					<path class="st5" d="M40.5,410"/>
					<path id="XMLID_324_" class="st11" d="M40.5,410L40.5,410L40.5,410z"/>
				</g>
				<g>
					<path class="st5" d="M40.5,410"/>
					<path id="XMLID_325_" class="st10" d="M40.5,410L40.5,410L40.5,410z"/>
				</g>
				<g>
					<path class="st5" d="M40.5,410"/>
					<path id="XMLID_326_" class="st9" d="M40.5,410L40.5,410L40.5,410z"/>
				</g>
				<g>
					<path class="st5" d="M40.5,410"/>
					<path id="XMLID_327_" class="st8" d="M40.5,410L40.5,410L40.5,410z"/>
				</g>
				<g>
					<path class="st5" d="M40.5,410"/>
					<path id="XMLID_328_" class="st7" d="M40.5,410L40.5,410L40.5,410z"/>
				</g>
				<g>
					<path class="st5" d="M40.5,410"/>
					<path id="XMLID_329_" class="st6" d="M40.5,410L40.5,410L40.5,410z"/>
				</g>
				<g>
					<path class="st5" d="M40.5,410"/>
					<path id="XMLID_330_" class="st6" d="M40.5,410L40.5,410L40.5,410z"/>
				</g>
			</g>
		</g>
		<g id="XMLID_2_">
			<path class="st113" d="M31.9,380.6c0,0-3.5-3.3-1.6-8.9c2.1-6.2,8.9-12.9,8.9-12.9s-7,6.1-9.2,12.8
				C28.4,377.1,31.1,380,31.9,380.6z"/>
		</g>
		<g id="XMLID_1_">
			<path class="st113" d="M62.7,372.1c0,0-5.1,0.2-9.7,4.6c-4.4,4.3-4.7,10.1-2.5,12.9c0,0-4.1-4.2,0.7-11.2
				C55.7,371.9,62.7,372.1,62.7,372.1z"/>
		</g>
	</g>
</g>
</svg>
